%YAML 1.1
%TAG !u! tag:unity3d.com,2011:
--- !u!1 &191031278385060839
GameObject:
  m_ObjectHideFlags: 0
  m_CorrespondingSourceObject: {fileID: 0}
  m_PrefabInstance: {fileID: 0}
  m_PrefabAsset: {fileID: 0}
  serializedVersion: 6
  m_Component:
  - component: {fileID: 191031278385060837}
  - component: {fileID: 191031278385060838}
  - component: {fileID: 5586287619746906441}
  m_Layer: 0
  m_Name: SpecificalOptions
  m_TagString: Untagged
  m_Icon: {fileID: 0}
  m_NavMeshLayer: 0
  m_StaticEditorFlags: 0
  m_IsActive: 1
--- !u!4 &191031278385060837
Transform:
  m_ObjectHideFlags: 0
  m_CorrespondingSourceObject: {fileID: 0}
  m_PrefabInstance: {fileID: 0}
  m_PrefabAsset: {fileID: 0}
  m_GameObject: {fileID: 191031278385060839}
  m_LocalRotation: {x: 0, y: 0, z: 0, w: 1}
  m_LocalPosition: {x: 536.7975, y: 369.7737, z: -263.4096}
  m_LocalScale: {x: 1, y: 1, z: 1}
  m_ConstrainProportionsScale: 0
  m_Children: []
  m_Father: {fileID: 0}
  m_RootOrder: 0
  m_LocalEulerAnglesHint: {x: 0, y: 0, z: 0}
--- !u!114 &191031278385060838
MonoBehaviour:
  m_ObjectHideFlags: 0
  m_CorrespondingSourceObject: {fileID: 0}
  m_PrefabInstance: {fileID: 0}
  m_PrefabAsset: {fileID: 0}
  m_GameObject: {fileID: 191031278385060839}
  m_Enabled: 1
  m_EditorHideFlags: 0
  m_Script: {fileID: 11500000, guid: a43c90519e336f540bde8b8eeda7830e, type: 3}
  m_Name: 
  m_EditorClassIdentifier: 
  ServerOptions: {fileID: 5586287619746906441}
  Network: {fileID: 2610710077607059437, guid: ef32d32a428d5ed48ae469cc79990fa2, type: 3}
  NetManager: {fileID: 0}
  _LightTransport: {fileID: 0}
  MainMenu: Assets/Scenes/Menu.unity
  Game: Assets/Scenes/Game.unity
  IsHost: 0
  IsOnlyClient: 0
  IsChangeScene: 0
  AudioEffectVolume: 0
  AudioMusicVolume: 0
--- !u!114 &5586287619746906441
MonoBehaviour:
  m_ObjectHideFlags: 0
  m_CorrespondingSourceObject: {fileID: 0}
  m_PrefabInstance: {fileID: 0}
  m_PrefabAsset: {fileID: 0}
  m_GameObject: {fileID: 191031278385060839}
  m_Enabled: 1
  m_EditorHideFlags: 0
  m_Script: {fileID: 11500000, guid: aa9ab91df696baa4c8dde8b22c3eddda, type: 3}
  m_Name: 
  m_EditorClassIdentifier: 
  ServerID: 
  MapControllers:
  - {fileID: 7506379486385103352, guid: 4b2ba90dc164fd24295570dcceaa9a6a, type: 3}
  - {fileID: 2824176883366244914, guid: 97762abf65605ff4598f3846167348b8, type: 3}
  SelectMap: {fileID: 0}
  Mode:
  - "\u0440\u0430\u043D\u0434\u043E\u043C"
  - "\u043C\u0430\u0441\u0441\u043E\u0432\u0430\u044F \u0430\u0442\u0430\u043A\u0430"
  - "\u0447\u0443\u0436\u0438\u0435 \u0441\u0440\u0435\u0434\u0438 \u043D\u0430\u0441"
  SelectMode: 
  GameMode: 0
  MapName: 
  CurrentMap: {fileID: 0}
  TimeLeftMinut: 0
  TimeLeftSeconds: 0
  CountBots: 0
  IsChangeMap: 0
