%YAML 1.1
%TAG !u! tag:unity3d.com,2011:
--- !u!1 &7133947288136974530
GameObject:
  m_ObjectHideFlags: 0
  m_CorrespondingSourceObject: {fileID: 0}
  m_PrefabInstance: {fileID: 0}
  m_PrefabAsset: {fileID: 0}
  serializedVersion: 6
  m_Component:
  - component: {fileID: 6993144004805552780}
  - component: {fileID: 2920943571891163504}
  m_Layer: 0
  m_Name: AK
  m_TagString: Untagged
  m_Icon: {fileID: 0}
  m_NavMeshLayer: 0
  m_StaticEditorFlags: 0
  m_IsActive: 1
--- !u!4 &6993144004805552780
Transform:
  m_ObjectHideFlags: 0
  m_CorrespondingSourceObject: {fileID: 0}
  m_PrefabInstance: {fileID: 0}
  m_PrefabAsset: {fileID: 0}
  m_GameObject: {fileID: 7133947288136974530}
  m_LocalRotation: {x: 0, y: 0, z: 0, w: 1}
  m_LocalPosition: {x: 0, y: 0, z: 0}
  m_LocalScale: {x: 1, y: 1, z: 1}
  m_Children: []
  m_Father: {fileID: 0}
  m_RootOrder: 0
  m_LocalEulerAnglesHint: {x: 0, y: 0, z: 0}
--- !u!114 &2920943571891163504
MonoBehaviour:
  m_ObjectHideFlags: 0
  m_CorrespondingSourceObject: {fileID: 0}
  m_PrefabInstance: {fileID: 0}
  m_PrefabAsset: {fileID: 0}
  m_GameObject: {fileID: 7133947288136974530}
  m_Enabled: 1
  m_EditorHideFlags: 0
  m_Script: {fileID: 11500000, guid: 9b7a137b30aaa8b409119a9f8fd84627, type: 3}
  m_Name: 
  m_EditorClassIdentifier: 
  syncMode: 0
  syncInterval: 0.1
  Weapon: 0
  PositionSpr: {x: 0.55, y: 0}
  NameWeapon: AK-47
  MaxClip: 30
  Clip: 30
  MaxAmmo: 210
  Ammo: 210
  MaxRecoil: 10
  FireSpeed: 0.1
  SpeedBullet: 15
  ReloadTime: 2.5
  MinDmg: 10
  MaxDmg: 75
  HSDmg: 90
  Knockback: 3.5
  WeaponSpr: {fileID: 21300000, guid: 28c0446050b8c854e9280b1bb4e69a50, type: 3}
  FireClip: {fileID: 8300000, guid: 44c32deea1f8c06468b7f3e912f78538, type: 3}
  DrawClip: {fileID: 8300000, guid: b3634f7a79c23964598efcb6879a4607, type: 3}
  ReloadClips:
  - {fileID: 8300000, guid: 04ca8ffa2b208e74eaebcbb8a32be025, type: 3}
  - {fileID: 8300000, guid: 23b22b1edc3d8c446a00c7aa66fae1d9, type: 3}
  KnifeMissClips: []
  KnifeStrikeClips: []
