%YAML 1.1
%TAG !u! tag:unity3d.com,2011:
--- !u!1 &9004001494230470578
GameObject:
  m_ObjectHideFlags: 0
  m_CorrespondingSourceObject: {fileID: 0}
  m_PrefabInstance: {fileID: 0}
  m_PrefabAsset: {fileID: 0}
  serializedVersion: 6
  m_Component:
  - component: {fileID: 3003795781995241356}
  - component: {fileID: 726460272571069739}
  m_Layer: 0
  m_Name: Bomber
  m_TagString: Untagged
  m_Icon: {fileID: 0}
  m_NavMeshLayer: 0
  m_StaticEditorFlags: 0
  m_IsActive: 1
--- !u!4 &3003795781995241356
Transform:
  m_ObjectHideFlags: 0
  m_CorrespondingSourceObject: {fileID: 0}
  m_PrefabInstance: {fileID: 0}
  m_PrefabAsset: {fileID: 0}
  m_GameObject: {fileID: 9004001494230470578}
  m_LocalRotation: {x: 0, y: 0, z: 0, w: 1}
  m_LocalPosition: {x: -40.769592, y: -30.908976, z: -22.042233}
  m_LocalScale: {x: 1, y: 1, z: 1}
  m_Children: []
  m_Father: {fileID: 0}
  m_RootOrder: 0
  m_LocalEulerAnglesHint: {x: 0, y: 0, z: 0}
--- !u!114 &726460272571069739
MonoBehaviour:
  m_ObjectHideFlags: 0
  m_CorrespondingSourceObject: {fileID: 0}
  m_PrefabInstance: {fileID: 0}
  m_PrefabAsset: {fileID: 0}
  m_GameObject: {fileID: 9004001494230470578}
  m_Enabled: 1
  m_EditorHideFlags: 0
  m_Script: {fileID: 11500000, guid: f276c236c8defc845b4e425423e4c55d, type: 3}
  m_Name: 
  m_EditorClassIdentifier: 
  syncMode: 0
  syncInterval: 0.1
  Name: Bomber
  Health: 100
  Armor: 30
  Speed: 2.2
  PainShock: 0.5
  PainShockSpeed: 1
  FeetClips:
  - {fileID: 8300000, guid: aa01ada603775fc4785f84e8d2753008, type: 3}
  - {fileID: 8300000, guid: 2062a627e3d0f8644878694fac612a09, type: 3}
  - {fileID: 8300000, guid: 7e172d7178a63ec4c9450a3e696d55b5, type: 3}
  - {fileID: 8300000, guid: ca580708599e8dc4687c69ac42d592d4, type: 3}
  DeathClips:
  - {fileID: 8300000, guid: a6493668ef1ba40449b73e9272e68e14, type: 3}
  - {fileID: 8300000, guid: c3565d70a8f9e87499f338e9fafea1fe, type: 3}
  - {fileID: 8300000, guid: 1a3f7f70c7eb24141b6599a6f0347c23, type: 3}
  PainClips:
  - {fileID: 8300000, guid: 33f4cc460569ef040916345f46d04f83, type: 3}
  - {fileID: 8300000, guid: f2843f455bf385b4fac90431863f381b, type: 3}
  - {fileID: 8300000, guid: 1bbfd5391f8e48145bbff3c12e42e42c, type: 3}
  - {fileID: 8300000, guid: a08824bcebbc6ef4585360959e509e06, type: 3}
  - {fileID: 8300000, guid: e257900dc91240744a1e5e9b0b27613e, type: 3}
