%YAML 1.1
%TAG !u! tag:unity3d.com,2011:
--- !u!1 &5012457096375485243
GameObject:
  m_ObjectHideFlags: 0
  m_CorrespondingSourceObject: {fileID: 0}
  m_PrefabInstance: {fileID: 0}
  m_PrefabAsset: {fileID: 0}
  serializedVersion: 6
  m_Component:
  - component: {fileID: 2151010612831567787}
  - component: {fileID: 5063758509343528801}
  m_Layer: 0
  m_Name: Deagle
  m_TagString: Untagged
  m_Icon: {fileID: 0}
  m_NavMeshLayer: 0
  m_StaticEditorFlags: 0
  m_IsActive: 1
--- !u!4 &2151010612831567787
Transform:
  m_ObjectHideFlags: 0
  m_CorrespondingSourceObject: {fileID: 0}
  m_PrefabInstance: {fileID: 0}
  m_PrefabAsset: {fileID: 0}
  m_GameObject: {fileID: 5012457096375485243}
  m_LocalRotation: {x: 0, y: 0, z: 0, w: 1}
  m_LocalPosition: {x: 0, y: 0, z: 0}
  m_LocalScale: {x: 1, y: 1, z: 1}
  m_Children: []
  m_Father: {fileID: 0}
  m_RootOrder: 0
  m_LocalEulerAnglesHint: {x: 0, y: 0, z: 0}
--- !u!114 &5063758509343528801
MonoBehaviour:
  m_ObjectHideFlags: 0
  m_CorrespondingSourceObject: {fileID: 0}
  m_PrefabInstance: {fileID: 0}
  m_PrefabAsset: {fileID: 0}
  m_GameObject: {fileID: 5012457096375485243}
  m_Enabled: 1
  m_EditorHideFlags: 0
  m_Script: {fileID: 11500000, guid: 9b7a137b30aaa8b409119a9f8fd84627, type: 3}
  m_Name: 
  m_EditorClassIdentifier: 
  syncMode: 0
  syncInterval: 0.1
  Weapon: 1
  PositionSpr: {x: 0, y: 0}
  NameWeapon: Deagle
  MaxClip: 7
  Clip: 7
  MaxAmmo: 70
  Ammo: 70
  MaxRecoil: 15
  FireSpeed: 0.3
  SpeedBullet: 15
  ReloadTime: 2
  MinDmg: 3
  MaxDmg: 8
  HSDmg: 0
  Knockback: 0
  WeaponSpr: {fileID: 0}
  FireClip: {fileID: 0}
  DrawClip: {fileID: 0}
  ReloadClips: []
  KnifeMissClips: []
  KnifeStrikeClips: []
