Library\Bee\artifacts\mvdfrm\Unity.Burst.ref.dll_14316E70964BB953.mvfrm
Library\Bee\artifacts\mvdfrm\Unity.Mathematics.ref.dll_14D1A32168A0AD59.mvfrm
Library\Bee\artifacts\mvdfrm\Unity.Postprocessing.Runtime.ref.dll_AB90C03FF8D63420.mvfrm
Library\Bee\artifacts\mvdfrm\Unity.RenderPipeline.Universal.ShaderLibrary.ref.dll_3F999310E5378770.mvfrm
Library\Bee\artifacts\mvdfrm\Unity.RenderPipelines.Core.Runtime.ref.dll_CA9A1FD000BA57CF.mvfrm
Library\Bee\artifacts\mvdfrm\Unity.RenderPipelines.Core.ShaderLibrary.ref.dll_86BC04EDBBAD6DBD.mvfrm
Library\Bee\artifacts\mvdfrm\Unity.RenderPipelines.ShaderGraph.ShaderGraphLibrary.ref.dll_2AC6C82FC7FB4B7D.mvfrm
Library\Bee\artifacts\mvdfrm\Unity.RenderPipelines.Universal.Runtime.ref.dll_F2E669F900AB6F15.mvfrm
Library\Bee\artifacts\mvdfrm\Unity.RenderPipelines.Universal.Shaders.ref.dll_334E79423F1A0A4B.mvfrm
Library\Bee\artifacts\mvdfrm\Unity.TextMeshPro.ref.dll_B085F143991618E6.mvfrm
Library\Bee\artifacts\mvdfrm\Unity.Timeline.ref.dll_54050F91DBE64E14.mvfrm
Library\Bee\artifacts\mvdfrm\Unity.VisualScripting.Core.ref.dll_27ACA245D8399F39.mvfrm
Library\Bee\artifacts\mvdfrm\Unity.VisualScripting.Flow.ref.dll_6EBD829C5A4313E8.mvfrm
Library\Bee\artifacts\mvdfrm\Unity.VisualScripting.State.ref.dll_F0190167D28F2F4D.mvfrm
Library\Bee\artifacts\mvdfrm\UnityEngine.UI.ref.dll_FAE6DBEA21006BE5.mvfrm
Library\Bee\artifacts\mvdfrm\Unity.Compat.dll_BF1C3A400F471BD4.mvfrm
Library\Bee\artifacts\mvdfrm\Unity.Tasks.dll_E59340E2C7414818.mvfrm
Library\Bee\artifacts\mvdfrm\UnityEngine.AccessibilityModule.dll_982D71DE1B04B09E.mvfrm
Library\Bee\artifacts\mvdfrm\UnityEngine.AIModule.dll_757BA1A95EFFFD7C.mvfrm
Library\Bee\artifacts\mvdfrm\UnityEngine.AndroidJNIModule.dll_BD2FDB25AEC1813A.mvfrm
Library\Bee\artifacts\mvdfrm\UnityEngine.AnimationModule.dll_E642BDD5F1D737C4.mvfrm
Library\Bee\artifacts\mvdfrm\UnityEngine.ARModule.dll_2EEE66ACBC1D5C45.mvfrm
Library\Bee\artifacts\mvdfrm\UnityEngine.AssetBundleModule.dll_AE75F150B603AF72.mvfrm
Library\Bee\artifacts\mvdfrm\UnityEngine.AudioModule.dll_E362A7E8CB2707B6.mvfrm
Library\Bee\artifacts\mvdfrm\UnityEngine.ClothModule.dll_4A4B04E3A543E69A.mvfrm
Library\Bee\artifacts\mvdfrm\UnityEngine.ClusterInputModule.dll_F8D5E0CFAFCBB9A4.mvfrm
Library\Bee\artifacts\mvdfrm\UnityEngine.ClusterRendererModule.dll_F850219F4DBE879D.mvfrm
Library\Bee\artifacts\mvdfrm\UnityEngine.CoreModule.dll_6800A6BA125A8F53.mvfrm
Library\Bee\artifacts\mvdfrm\UnityEngine.CrashReportingModule.dll_E9505E20C07874CB.mvfrm
Library\Bee\artifacts\mvdfrm\UnityEngine.DirectorModule.dll_6AF85EDAA00E9A30.mvfrm
Library\Bee\artifacts\mvdfrm\UnityEngine.dll_42B2869A7592D9D2.mvfrm
Library\Bee\artifacts\mvdfrm\UnityEngine.DSPGraphModule.dll_7049C044126F6B51.mvfrm
Library\Bee\artifacts\mvdfrm\UnityEngine.GameCenterModule.dll_E77D25407502722B.mvfrm
Library\Bee\artifacts\mvdfrm\UnityEngine.GIModule.dll_0DB7EAB6FAAEE596.mvfrm
Library\Bee\artifacts\mvdfrm\UnityEngine.GridModule.dll_4571C2A82AAF254A.mvfrm
Library\Bee\artifacts\mvdfrm\UnityEngine.HotReloadModule.dll_678B7BDBCD0A5346.mvfrm
Library\Bee\artifacts\mvdfrm\UnityEngine.ImageConversionModule.dll_64421F4FCFE33F91.mvfrm
Library\Bee\artifacts\mvdfrm\UnityEngine.IMGUIModule.dll_1BC2474F91589B97.mvfrm
Library\Bee\artifacts\mvdfrm\UnityEngine.InputLegacyModule.dll_3FBB0C6F4DF56563.mvfrm
Library\Bee\artifacts\mvdfrm\UnityEngine.InputModule.dll_49D86F99415F2C5A.mvfrm
Library\Bee\artifacts\mvdfrm\UnityEngine.JSONSerializeModule.dll_F844FB1A1A401128.mvfrm
Library\Bee\artifacts\mvdfrm\UnityEngine.LocalizationModule.dll_3722AB224747AC9D.mvfrm
Library\Bee\artifacts\mvdfrm\UnityEngine.ParticleSystemModule.dll_3C62A76D2E8A0059.mvfrm
Library\Bee\artifacts\mvdfrm\UnityEngine.PerformanceReportingModule.dll_8E334D7A9F603712.mvfrm
Library\Bee\artifacts\mvdfrm\UnityEngine.Physics2DModule.dll_32E8ADC692D42F59.mvfrm
Library\Bee\artifacts\mvdfrm\UnityEngine.PhysicsModule.dll_1CA77CC240C26547.mvfrm
Library\Bee\artifacts\mvdfrm\UnityEngine.ProfilerModule.dll_9D3E98113968213D.mvfrm
Library\Bee\artifacts\mvdfrm\UnityEngine.RuntimeInitializeOnLoadManagerInitializerModule.dll_475349EDA549D222.mvfrm
Library\Bee\artifacts\mvdfrm\UnityEngine.ScreenCaptureModule.dll_122CA89F2EAC3D8A.mvfrm
Library\Bee\artifacts\mvdfrm\UnityEngine.SharedInternalsModule.dll_E8535E2547113AE1.mvfrm
Library\Bee\artifacts\mvdfrm\UnityEngine.SpriteMaskModule.dll_D0A997D0967207A5.mvfrm
Library\Bee\artifacts\mvdfrm\UnityEngine.SpriteShapeModule.dll_C7D71EAB6BA5E77C.mvfrm
Library\Bee\artifacts\mvdfrm\UnityEngine.StreamingModule.dll_9AD7AB26415EEF02.mvfrm
Library\Bee\artifacts\mvdfrm\UnityEngine.SubstanceModule.dll_7782BF6F8CB1ED10.mvfrm
Library\Bee\artifacts\mvdfrm\UnityEngine.SubsystemsModule.dll_3B56FE3264B9EFB8.mvfrm
Library\Bee\artifacts\mvdfrm\UnityEngine.TerrainModule.dll_36EDF8311680AE35.mvfrm
Library\Bee\artifacts\mvdfrm\UnityEngine.TerrainPhysicsModule.dll_3CDD504047CCFAE6.mvfrm
Library\Bee\artifacts\mvdfrm\UnityEngine.TextCoreFontEngineModule.dll_D6327D8B9B276771.mvfrm
Library\Bee\artifacts\mvdfrm\UnityEngine.TextCoreTextEngineModule.dll_1E1AB3FD2AAB208F.mvfrm
Library\Bee\artifacts\mvdfrm\UnityEngine.TextRenderingModule.dll_3B6C1AA9E5E3BD7F.mvfrm
Library\Bee\artifacts\mvdfrm\UnityEngine.TilemapModule.dll_D5EA5FB22E3D8F3E.mvfrm
Library\Bee\artifacts\mvdfrm\UnityEngine.TLSModule.dll_7B86AEE3A3538C5B.mvfrm
Library\Bee\artifacts\mvdfrm\UnityEngine.UIElementsModule.dll_3F955F9A67E62BAF.mvfrm
Library\Bee\artifacts\mvdfrm\UnityEngine.UIElementsNativeModule.dll_E5976C3825459FA6.mvfrm
Library\Bee\artifacts\mvdfrm\UnityEngine.UIModule.dll_70EF3FD6BB470328.mvfrm
Library\Bee\artifacts\mvdfrm\UnityEngine.UmbraModule.dll_5E375401584DB329.mvfrm
Library\Bee\artifacts\mvdfrm\UnityEngine.UNETModule.dll_FAA6EEA35F6984CC.mvfrm
Library\Bee\artifacts\mvdfrm\UnityEngine.UnityAnalyticsModule.dll_5C021836DAB15255.mvfrm
Library\Bee\artifacts\mvdfrm\UnityEngine.UnityConnectModule.dll_6698EFC8F8CBE789.mvfrm
Library\Bee\artifacts\mvdfrm\UnityEngine.UnityCurlModule.dll_195F5F0761EB29B1.mvfrm
Library\Bee\artifacts\mvdfrm\UnityEngine.UnityTestProtocolModule.dll_5DB2E00B9E5B169F.mvfrm
Library\Bee\artifacts\mvdfrm\UnityEngine.UnityWebRequestAssetBundleModule.dll_612F065AD233ACE6.mvfrm
Library\Bee\artifacts\mvdfrm\UnityEngine.UnityWebRequestAudioModule.dll_062FA15925CB01AA.mvfrm
Library\Bee\artifacts\mvdfrm\UnityEngine.UnityWebRequestModule.dll_75E126F9DAD7DA10.mvfrm
Library\Bee\artifacts\mvdfrm\UnityEngine.UnityWebRequestTextureModule.dll_FA9D5904A272D0BF.mvfrm
Library\Bee\artifacts\mvdfrm\UnityEngine.UnityWebRequestWWWModule.dll_E8DCF9591A6ADCFB.mvfrm
Library\Bee\artifacts\mvdfrm\UnityEngine.VehiclesModule.dll_E2BB585A1A3869CB.mvfrm
Library\Bee\artifacts\mvdfrm\UnityEngine.VFXModule.dll_FC65475279C0F5C8.mvfrm
Library\Bee\artifacts\mvdfrm\UnityEngine.VideoModule.dll_086C2C538DB9235B.mvfrm
Library\Bee\artifacts\mvdfrm\UnityEngine.VirtualTexturingModule.dll_0A2420A6FDF42031.mvfrm
Library\Bee\artifacts\mvdfrm\UnityEngine.VRModule.dll_C3C1665C5D0188A0.mvfrm
Library\Bee\artifacts\mvdfrm\UnityEngine.WindModule.dll_DE4F81E2A3910DBC.mvfrm
Library\Bee\artifacts\mvdfrm\UnityEngine.XRModule.dll_F6802960E63BD5FE.mvfrm
Library\Bee\artifacts\mvdfrm\Unity.Burst.Cecil.dll_26BA332D8B9AF58E.mvfrm
Library\Bee\artifacts\mvdfrm\Unity.Burst.Cecil.Mdb.dll_A1E22B9379282C4B.mvfrm
Library\Bee\artifacts\mvdfrm\Unity.Burst.Cecil.Pdb.dll_B934A402F7DD2DCE.mvfrm
Library\Bee\artifacts\mvdfrm\Unity.Burst.Cecil.Rocks.dll_81910837809B93AE.mvfrm
Library\Bee\artifacts\mvdfrm\Unity.Burst.Unsafe.dll_126EDF81F3654EA5.mvfrm
Library\Bee\artifacts\mvdfrm\Unity.VisualScripting.Antlr3.Runtime.dll_CFD8E89A0A3BCB7E.mvfrm