%YAML 1.1
%TAG !u! tag:unity3d.com,2011:
--- !u!114 &11400000
MonoBehaviour:
  m_ObjectHideFlags: 0
  m_CorrespondingSourceObject: {fileID: 0}
  m_PrefabInstance: {fileID: 0}
  m_PrefabAsset: {fileID: 0}
  m_GameObject: {fileID: 0}
  m_Enabled: 1
  m_EditorHideFlags: 0
  m_Script: {fileID: 11500000, guid: 028f6fd4b5648da408750b332adcc576, type: 3}
  m_Name: MainMenu
  m_EditorClassIdentifier: 
  languages:
  - RU
  - ENG
  words:
  - phrases:
    - langName: RU
      phrase: "\u0421\u041E\u0417\u0414\u0410\u0422\u042C"
    - langName: ENG
      phrase: CREATE
    key: CreateServerCreateT
    hide: 1
  - phrases:
    - langName: RU
      phrase: "\u0420\u0435\u0436\u0438\u043C \u0438\u0433\u0440\u044B:"
    - langName: ENG
      phrase: 'Game mode:'
    key: CreateServerModsT
    hide: 1
  - phrases:
    - langName: RU
      phrase: "\u041A\u0430\u0440\u0442\u0430:"
    - langName: ENG
      phrase: 'Maps:'
    key: CreateServerMapsT
    hide: 1
  - phrases:
    - langName: RU
      phrase: "\u041A\u043E\u043B\u0438\u0447\u0435\u0441\u0442\u0432\u043E \u0438\u0433\u0440\u043E\u043A\u043E\u0432:"
    - langName: ENG
      phrase: 'Counts players:'
    key: CreateServerCountPlayersT
    hide: 1
  - phrases:
    - langName: RU
      phrase: "\u041A\u043E\u043B\u0438\u0447\u0435\u0441\u0442\u0432\u043E \u0431\u043E\u0442\u043E\u0432:"
    - langName: ENG
      phrase: 'Counts bots:'
    key: CreateServerCountBotsT
    hide: 1
  - phrases:
    - langName: RU
      phrase: "\u041D\u0430\u0437\u0432\u0430\u043D\u0438\u0435 \u0441\u0435\u0440\u0432\u0435\u0440\u0430:"
    - langName: ENG
      phrase: 'NameServer:'
    key: CreateServerNameT
    hide: 1
  - phrases:
    - langName: RU
      phrase: "\u0421\u043E\u0437\u0434\u0430\u0442\u044C \u0441\u0435\u0440\u0432\u0435\u0440:"
    - langName: ENG
      phrase: 'Create Server:'
    key: CreateServerPalletT
    hide: 1
  - phrases:
    - langName: RU
      phrase: "\u041F\u041E\u0414\u041A\u041B\u042E\u0427\u0418\u0422\u042C\u0421\u042F"
    - langName: ENG
      phrase: CONNECT
    key: BrowserServerConnectT
    hide: 1
  - phrases:
    - langName: RU
      phrase: "\u0421\u043E\u0437\u0434\u0430\u0442\u044C \u0441\u0432\u043E\u0439
        \u0441\u0435\u0440\u0432\u0435\u0440"
    - langName: ENG
      phrase: Create new server
    key: BrowserServerCreateT
    hide: 1
  - phrases:
    - langName: RU
      phrase: "\u0411\u0440\u0430\u0443\u0437\u0435\u0440 \u0441\u0435\u0440\u0432\u0435\u0440\u043E\u0432:"
    - langName: ENG
      phrase: 'Browser Server:'
    key: BrowserServerPalletT
    hide: 1
  - phrases:
    - langName: RU
      phrase: "\u042F\u0437\u044B\u043A:"
    - langName: ENG
      phrase: 'Language:'
    key: LanguagePalletT
    hide: 1
  - phrases:
    - langName: RU
      phrase: "\u0417\u0432\u0443\u043A:"
    - langName: ENG
      phrase: 'Sound:'
    key: SoundPalletT
    hide: 1
  - phrases:
    - langName: RU
      phrase: "\u0412\u044B\u0439\u0442\u0438 \u0438\u0437 \u0430\u043A\u043A\u0430\u0443\u043D\u0442\u0430"
    - langName: ENG
      phrase: Exit account
    key: AccountExitT
    hide: 1
  - phrases:
    - langName: RU
      phrase: "\u0418\u0437\u043C\u0435\u043D\u0438\u0442\u044C"
    - langName: ENG
      phrase: Change
    key: AccountChangeT
    hide: 1
  - phrases:
    - langName: RU
      phrase: "\u041D\u0438\u043A\u043D\u0435\u0439\u043C:"
    - langName: ENG
      phrase: 'Nickname:'
    key: AccountNickNameT
    hide: 1
  - phrases:
    - langName: RU
      phrase: "\u041D\u043E\u0432\u0430\u044F \u043F\u043E\u0447\u0442\u0430:"
    - langName: ENG
      phrase: 'New Email:'
    key: AccountNewEmailT
    hide: 1
  - phrases:
    - langName: RU
      phrase: "\u041F\u043E\u0432\u0442\u043E\u0440:"
    - langName: ENG
      phrase: 'Repeat:'
    key: AccountRepeatT
    hide: 1
  - phrases:
    - langName: RU
      phrase: "\u041D\u043E\u0432\u044B\u0439 \u043F\u0430\u0440\u043E\u043B\u044C:"
    - langName: ENG
      phrase: 'New password:'
    key: AccountNewPasswordT
    hide: 1
  - phrases:
    - langName: RU
      phrase: "\u0410\u043A\u043A\u0430\u0443\u043D\u0442:"
    - langName: ENG
      phrase: 'Account:'
    key: AccountPalletT
    hide: 1
  - phrases:
    - langName: RU
      phrase: "\u041F\u043E \u0443\u043C\u043E\u043B\u0447\u0430\u043D\u0438\u044E"
    - langName: ENG
      phrase: Default
    key: SettingsDefaultT
    hide: 1
  - phrases:
    - langName: RU
      phrase: "\u0421\u043E\u0445\u0440\u0430\u043D\u0438\u0442\u044C"
    - langName: ENG
      phrase: Save
    key: SettingsSaveT
    hide: 1
  - phrases:
    - langName: RU
      phrase: "\u0410\u043A\u043A\u0430\u0443\u043D\u0442"
    - langName: ENG
      phrase: Account
    key: SettingsAccountT
    hide: 1
  - phrases:
    - langName: RU
      phrase: "\u042F\u0437\u044B\u043A"
    - langName: ENG
      phrase: Language
    key: SettingsLanguageT
    hide: 1
  - phrases:
    - langName: RU
      phrase: "\u0417\u0432\u0443\u043A"
    - langName: ENG
      phrase: Sound
    key: SettingsSoundT
    hide: 1
  - phrases:
    - langName: RU
      phrase: "\u0413\u0440\u0430\u0444\u0438\u043A\u0430"
    - langName: ENG
      phrase: Graphics
    key: SettingsGraphicsT
    hide: 1
  - phrases:
    - langName: RU
      phrase: "\u041E\u0441\u043D\u043E\u0432\u043D\u044B\u0435"
    - langName: ENG
      phrase: Main
    key: SettingsMainT
    hide: 1
  - phrases:
    - langName: RU
      phrase: "\u041F\u0435\u0440\u0441\u043E\u043D\u0430\u0436"
    - langName: ENG
      phrase: Character
    key: CharacterT
    hide: 1
  - phrases:
    - langName: RU
      phrase: "\u0413\u043B\u043E\u0431\u0430\u043B\u044C\u043D\u0430\u044F \u0441\u0442\u0430\u0442\u0438\u0441\u0442\u0438\u043A\u0430"
    - langName: ENG
      phrase: Global Statistic
    key: GlobalStatisticT
    hide: 1
  - phrases:
    - langName: RU
      phrase: "\u0423\u0441\u043A\u043E\u0440\u0438\u0442\u0435\u043B\u044C"
    - langName: ENG
      phrase: Boosters
    key: BoostersT
    hide: 1
  - phrases:
    - langName: RU
      phrase: "\u0421\u043F\u0435\u0446\u0438\u0430\u043B\u0438\u0441\u0442"
    - langName: ENG
      phrase: Specialist
    key: SpecialistT
    hide: 1
  - phrases:
    - langName: RU
      phrase: "\u041E\u0440\u0443\u0436\u0438\u0435"
    - langName: ENG
      phrase: Weapons
    key: WeaponsT
    hide: 1
  - phrases:
    - langName: RU
      phrase: "\u041D\u0435 \u0443\u0434\u0430\u043B\u043E\u0441\u044C \u043E\u0431\u043D\u043E\u0432\u0438\u0442\u044C
        \u043F\u0430\u0440\u043E\u043B\u044C!"
    - langName: ENG
      phrase: Update password failed!
    key: UpdatePasswordError
    hide: 1
  - phrases:
    - langName: RU
      phrase: "\u041D\u0435 \u0443\u0434\u0430\u043B\u043E\u0441\u044C \u043E\u0431\u043D\u043E\u0432\u0438\u0442\u044C
        \u044D\u043B\u0435\u043A\u0442\u0440\u043E\u043D\u043D\u0443\u044E \u043F\u043E\u0447\u0442\u0443!"
    - langName: ENG
      phrase: Update email failed!
    key: UpdateEmailError
    hide: 1
  - phrases:
    - langName: RU
      phrase: "\u041D\u0435 \u0443\u0434\u0430\u043B\u043E\u0441\u044C \u043E\u0431\u043D\u043E\u0432\u0438\u0442\u044C
        \u043F\u0440\u043E\u0444\u0438\u043B\u044C!"
    - langName: ENG
      phrase: Update profile failed!
    key: UpdateProfileError
    hide: 1
  - phrases:
    - langName: RU
      phrase: "\u041D\u0435 \u0443\u0434\u0430\u043B\u043E\u0441\u044C \u0441\u0431\u0440\u043E\u0441\u0438\u0442\u044C
        \u043F\u0430\u0440\u043E\u043B\u044C!"
    - langName: ENG
      phrase: ResetPassword Failed!
    key: RecoverPasswordError
    hide: 1
  - phrases:
    - langName: RU
      phrase: "\u0413\u043B\u0430\u0432\u043D\u043E\u0435 \u043C\u0435\u043D\u044E"
    - langName: ENG
      phrase: Main menu
    key: MainMenuT
    hide: 1
  - phrases:
    - langName: RU
      phrase: "\u041D\u0430\u0441\u0442\u0440\u043E\u0439\u043A\u0438"
    - langName: ENG
      phrase: Settings
    key: SettingsT
    hide: 1
  - phrases:
    - langName: RU
      phrase: "\u041D\u043E\u0432\u043E\u0441\u0442\u0438"
    - langName: ENG
      phrase: News
    key: NewsT
    hide: 1
  - phrases:
    - langName: RU
      phrase: "\u0418\u043D\u0432\u0435\u043D\u0442\u0430\u0440\u044C"
    - langName: ENG
      phrase: Inventory
    key: InventT
    hide: 1
  - phrases:
    - langName: RU
      phrase: "\u041C\u0430\u0433\u0430\u0437\u0438\u043D"
    - langName: ENG
      phrase: Shop
    key: ShopT
    hide: 1
  - phrases:
    - langName: RU
      phrase: "\u0418\u0433\u0440\u043E\u043A\u043E\u0432 \u043E\u043D\u043B\u0430\u0439\u043D:"
    - langName: ENG
      phrase: 'Players online:'
    key: PlayersOnline
    hide: 1
  - phrases:
    - langName: RU
      phrase: "\u0420\u0435\u0433\u0438\u0441\u0442\u0440\u0430\u0446\u0438\u044F"
    - langName: ENG
      phrase: Registration
    key: Registration
    hide: 1
  - phrases:
    - langName: RU
      phrase: "\u0417\u0430\u0431\u044B\u043B \u043F\u0430\u0440\u043E\u043B\u044C"
    - langName: ENG
      phrase: Forgot password
    key: ForgotPassword
    hide: 1
  - phrases:
    - langName: RU
      phrase: "\u0412\u043E\u0439\u0442\u0438"
    - langName: ENG
      phrase: Log In
    key: LogIn
    hide: 1
  - phrases:
    - langName: RU
      phrase: "\u0412\u043E\u0441\u0441\u0442\u0430\u043D\u043E\u0432\u0438\u0442\u044C"
    - langName: ENG
      phrase: Reset
    key: ResetT
    hide: 1
  - phrases:
    - langName: RU
      phrase: "\u041F\u043E\u0447\u0442\u0430 \u0434\u043B\u044F \u0432\u043E\u0441\u0441\u0442\u0430\u043D\u043E\u0432\u043B\u0435\u043D\u0438\u044F"
    - langName: ENG
      phrase: Email for recovery
    key: EmailTReset
    hide: 1
  - phrases:
    - langName: RU
      phrase: "\u041D\u0438\u043A\u043D\u0435\u0439\u043C"
    - langName: ENG
      phrase: Nickname
    key: NickNameT
    hide: 1
  - phrases:
    - langName: RU
      phrase: "\u041F\u0430\u0440\u043E\u043B\u044C"
    - langName: ENG
      phrase: Password
    key: PasswordT
    hide: 1
  - phrases:
    - langName: RU
      phrase: "\u041F\u043E\u0447\u0442\u0430"
    - langName: ENG
      phrase: Email
    key: EmailT
    hide: 1
  - phrases:
    - langName: RU
      phrase: "\u041F\u0440\u0438\u0447\u0438\u043D\u0430: \u043E\u0442\u0441\u0443\u0442\u0441\u0442\u0432\u0443\u0435\u0442
        \u043A\u043B\u0438\u0435\u043D\u0442\u0441\u043A\u0438\u0439 \u0441\u0435\u0442\u0435\u0432\u043E\u0439
        \u043C\u043E\u0441\u0442"
    - langName: ENG
      phrase: 'Cause: No client network bridge'
    key: CauseNoClientNetwork
    hide: 1
  - phrases:
    - langName: RU
      phrase: "\u041F\u0440\u0438\u0447\u0438\u043D\u0430: \u043D\u0435\u0432\u043E\u0437\u043C\u043E\u0436\u043D\u043E
        \u043F\u043E\u0434\u043A\u043B\u044E\u0447\u0438\u0442\u044C\u0441\u044F
        \u043A \u0441\u0435\u0440\u0432\u0435\u0440\u0443"
    - langName: ENG
      phrase: 'Cause: Unable to connect to the server'
    key: UnableConnectToServer
    hide: 1
  - phrases:
    - langName: RU
      phrase: "\u041F\u0440\u0438\u0447\u0438\u043D\u0430: \u043E\u0442\u0441\u0443\u0442\u0441\u0442\u0432\u0443\u0435\u0442
        \u043F\u043E\u0434\u043A\u043B\u044E\u0447\u0435\u043D\u0438\u0435 \u043A
        \u043C\u043E\u0441\u0442\u0443"
    - langName: ENG
      phrase: 'Reason: No connection to the bridge'
    key: ReasonNoConnection
    hide: 1
  - phrases:
    - langName: RU
      phrase: "\u0412\u044B \u0434\u0435\u0439\u0441\u0442\u0432\u0438\u0442\u0435\u043B\u044C\u043D\u043E
        \u0445\u043E\u0442\u0438\u0442\u0435 \u0432\u0435\u0440\u043D\u0443\u0442\u044C\u0441\u044F
        \u0432 \u0433\u043B\u0430\u0432\u043D\u043E\u0435 \u043C\u0435\u043D\u044E?"
    - langName: ENG
      phrase: Do you really want to go back to the main menu?
    key: BackMainMenu
    hide: 1
  - phrases:
    - langName: RU
      phrase: "\u0412\u044B \u0434\u0435\u0439\u0441\u0442\u0432\u0438\u0442\u0435\u043B\u044C\u043D\u043E
        \u0445\u043E\u0442\u0438\u0442\u0435 \u0432\u044B\u0439\u0442\u0438 \u0438\u0437
        \u0438\u0433\u0440\u044B?"
    - langName: ENG
      phrase: Do you really want to quit the game?
    key: QuitGame
    hide: 1
  - phrases:
    - langName: RU
      phrase: "\u041F\u0430\u0440\u043E\u043B\u044C \u0443\u0441\u043F\u0435\u0448\u043D\u043E
        \u0431\u044B\u043B \u0438\u0437\u043C\u0435\u043D\u0435\u043D! "
    - langName: ENG
      phrase: The password has been successfully changed!
    key: PasswordChanged
    hide: 1
  - phrases:
    - langName: RU
      phrase: "\u0418\u0437-\u0437\u0430 \u043C\u0435\u0440 \u0431\u0435\u0437\u043E\u043F\u0430\u0441\u043D\u043E\u0441\u0442\u0438,
        \u043F\u043E\u0436\u0430\u043B\u0443\u0439\u0441\u0442\u0430, \u043F\u0435\u0440\u0435\u0437\u0430\u0439\u0434\u0438\u0442\u0435
        \u0432 \u0441\u0432\u043E\u0439 \u0430\u043A\u043A\u0430\u0443\u043D\u0442
        \u0447\u0442\u043E\u0431\u044B \u043F\u043E\u043B\u0443\u0447\u0438\u0442\u044C
        \u0432\u043E\u0437\u043C\u043E\u0436\u043D\u043E\u0441\u0442\u044C \u0441\u043C\u0435\u043D\u0438\u0442\u044C
        \u043F\u0430\u0440\u043E\u043B\u044C! "
    - langName: ENG
      phrase: Due to security measures, please sign into your account again to be
        able to change your password!
    key: PasswordSecurityMeasures
    hide: 1
  - phrases:
    - langName: RU
      phrase: "\u041F\u043E\u0447\u0442\u0430 \u0443\u0441\u043F\u0435\u0448\u043D\u043E
        \u0431\u044B\u043B\u0430 \u0438\u0437\u043C\u0435\u043D\u0435\u043D\u0430! "
    - langName: ENG
      phrase: The email has been successfully changed!
    key: EmailChanged
    hide: 1
  - phrases:
    - langName: RU
      phrase: "\u0418\u0437-\u0437\u0430 \u043C\u0435\u0440 \u0431\u0435\u0437\u043E\u043F\u0430\u0441\u043D\u043E\u0441\u0442\u0438,
        \u043F\u043E\u0436\u0430\u043B\u0443\u0439\u0441\u0442\u0430, \u043F\u0435\u0440\u0435\u0437\u0430\u0439\u0434\u0438\u0442\u0435
        \u0432 \u0441\u0432\u043E\u0439 \u0430\u043A\u043A\u0430\u0443\u043D\u0442
        \u0447\u0442\u043E\u0431\u044B \u043F\u043E\u043B\u0443\u0447\u0438\u0442\u044C
        \u0432\u043E\u0437\u043C\u043E\u0436\u043D\u043E\u0441\u0442\u044C \u0441\u043C\u0435\u043D\u0438\u0442\u044C
        \u043F\u043E\u0447\u0442\u0443! "
    - langName: ENG
      phrase: Due to security measures, please sign into your account again to be
        able to change your email!
    key: EmailSecurityMeasures
    hide: 1
  - phrases:
    - langName: RU
      phrase: "\u0412\u0430\u0448 \u043F\u0440\u043E\u0444\u0438\u043B\u044C \u0431\u044B\u043B
        \u0443\u0441\u043F\u0435\u0448\u043D\u043E \u043E\u0431\u043D\u043E\u0432\u043B\u0435\u043D!"
    - langName: ENG
      phrase: Your profile has been successfully updated!
    key: ProfileUpdate
    hide: 1
  - phrases:
    - langName: RU
      phrase: "\u041F\u043E\u0436\u0430\u043B\u0443\u0439\u0441\u0442\u0430, \u043F\u0440\u043E\u0432\u0435\u0440\u044C\u0442\u0435
        \u0432\u0430\u0448\u0443 \u0443\u043A\u0430\u0437\u0430\u043D\u043D\u0443\u044E
        \u044D\u043B\u0435\u043A\u0442\u0440\u043E\u043D\u043D\u0443\u044E \u043F\u043E\u0447\u0442\u0443
        - \u0442\u0443\u0434\u0430 \u0434\u043E\u043B\u0436\u043D\u043E \u043F\u0440\u0438\u0439\u0442\u0438
        \u043F\u0438\u0441\u044C\u043C\u043E \u0434\u043B\u044F \u0432\u043E\u0441\u0441\u0442\u0430\u043D\u043E\u0432\u043B\u0435\u043D\u0438\u044F
        \u043F\u0430\u0440\u043E\u043B\u044F "
    - langName: ENG
      phrase: Please check your email - you should receive an email to recover your
        password
    key: RecoverPassword
    hide: 1
  - phrases:
    - langName: RU
      phrase: "\u041F\u043E\u0436\u0430\u043B\u0443\u0439\u0441\u0442\u0430, \u043F\u0440\u043E\u0432\u0435\u0440\u044C\u0442\u0435
        \u0432\u0430\u0448\u0443 \u0443\u043A\u0430\u0437\u0430\u043D\u043D\u0443\u044E
        \u044D\u043B\u0435\u043A\u0442\u0440\u043E\u043D\u043D\u0443\u044E \u043F\u043E\u0447\u0442\u0443
        \u2014 \u0442\u0443\u0434\u0430 \u0434\u043E\u043B\u0436\u043D\u043E \u043F\u0440\u0438\u0439\u0442\u0438
        \u043F\u0438\u0441\u044C\u043C\u043E \u0434\u043B\u044F \u043F\u043E\u0434\u0442\u0432\u0435\u0440\u0436\u0434\u0435\u043D\u0438\u044F"
    - langName: ENG
      phrase: Please check your email address for a confirmation email
    key: VereficationEmail
    hide: 1
  - phrases:
    - langName: RU
      phrase: "\u041E\u0448\u0438\u0431\u043A\u0430 \u0430\u0443\u0442\u0435\u043D\u0442\u0438\u0444\u0438\u043A\u0430\u0446\u0438\u0438
        \u043F\u043E\u0447\u0442\u044B! "
    - langName: ENG
      phrase: Email authentication error!
    key: EmailAuthenticationError
    hide: 1
  - phrases:
    - langName: RU
      phrase: "\u041D\u0435 \u0443\u0434\u0430\u043B\u043E\u0441\u044C \u0443\u0441\u0442\u0430\u043D\u043E\u0432\u0438\u0442\u044C
        \u0438\u043C\u044F \u043F\u043E\u043B\u044C\u0437\u043E\u0432\u0430\u0442\u0435\u043B\u044F!"
    - langName: ENG
      phrase: Username Set Failed!
    key: UsernameSetFailed
    hide: 1
  - phrases:
    - langName: RU
      phrase: "\u0417\u0430\u0440\u0435\u0433\u0438\u0441\u0442\u0440\u0438\u0440\u043E\u0432\u0430\u0442\u044C\u0441\u044F
        \u043D\u0435 \u0443\u0434\u0430\u043B\u043E\u0441\u044C! "
    - langName: ENG
      phrase: Register Failed!
    key: RegisterFailed
    hide: 1
  - phrases:
    - langName: RU
      phrase: "\u041E\u0442\u0441\u0443\u0442\u0441\u0442\u0432\u0443\u0435\u0442
        \u0438\u043C\u044F \u043F\u043E\u043B\u044C\u0437\u043E\u0432\u0430\u0442\u0435\u043B\u044F! "
    - langName: ENG
      phrase: Missing Username!
    key: MissingUsername
    hide: 1
  - phrases:
    - langName: RU
      phrase: "\u041F\u043E\u043B\u044C\u0437\u043E\u0432\u0430\u0442\u0435\u043B\u044F
        \u043D\u0435 \u0441\u0443\u0449\u0435\u0441\u0442\u0432\u0443\u0435\u0442! "
    - langName: ENG
      phrase: The user does not exist!
    key: UserDoesNotExist
    hide: 1
  - phrases:
    - langName: RU
      phrase: "\u0421\u043B\u0438\u0448\u043A\u043E\u043C \u043C\u043D\u043E\u0433\u043E
        \u0437\u0430\u043F\u0440\u043E\u0441\u043E\u0432! "
    - langName: ENG
      phrase: Too many requests!
    key: TooManyRequests
    hide: 1
  - phrases:
    - langName: RU
      phrase: "\u041F\u0440\u043E\u0432\u0435\u0440\u043A\u0430 \u044D\u043B\u0435\u043A\u0442\u0440\u043E\u043D\u043D\u043E\u0439
        \u043F\u043E\u0447\u0442\u044B \u0431\u044B\u043B\u0430 \u043E\u0442\u043C\u0435\u043D\u0435\u043D\u0430! "
    - langName: ENG
      phrase: The email checks have been cancelled!
    key: EmailChecksCancelled
    hide: 1
  - phrases:
    - langName: RU
      phrase: "\u041F\u043E\u043B\u0435 \u044D\u043B\u0435\u043A\u0442\u0440\u043E\u043D\u043D\u043E\u0439
        \u043F\u043E\u0447\u0442\u044B \u043D\u0435 \u043C\u043E\u0436\u0435\u0442
        \u0431\u044B\u0442\u044C \u043F\u0443\u0441\u0442\u044B\u043C!"
    - langName: ENG
      phrase: The email field cannot be empty!
    key: EmailFieldNull
    hide: 1
  - phrases:
    - langName: RU
      phrase: "\u041D\u0435\u043A\u043E\u0440\u0440\u0435\u043A\u0442\u043D\u044B\u0439
        \u0430\u0434\u0440\u0435\u0441 \u044D\u043B\u0435\u043A\u0442\u0440\u043E\u043D\u043D\u043E\u0439
        \u043F\u043E\u0447\u0442\u044B! "
    - langName: ENG
      phrase: Incorrect email address!
    key: IncorrectEmail
    hide: 1
  - phrases:
    - langName: RU
      phrase: "\u0423\u0447\u0435\u0442\u043D\u0430\u044F \u0437\u0430\u043F\u0438\u0441\u044C
        \u0441 \u0442\u0430\u043A\u043E\u0439 \u043F\u043E\u0447\u0442\u043E\u0439
        \u0443\u0436\u0435 \u0441\u0443\u0449\u0435\u0441\u0442\u0432\u0443\u0435\u0442! "
    - langName: ENG
      phrase: An account with such a email already exists!
    key: EmailAlready
    hide: 1
  - phrases:
    - langName: RU
      phrase: "\u041F\u0430\u0440\u043E\u043B\u044C \u043D\u0435\u043F\u0440\u0430\u0432\u0438\u043B\u044C\u043D\u044B\u0439! "
    - langName: ENG
      phrase: Password is wrong!
    key: PasswordWrong
    hide: 1
  - phrases:
    - langName: RU
      phrase: "\u041D\u0435\u043D\u0430\u0434\u0435\u0436\u043D\u044B\u0439 \u043F\u0430\u0440\u043E\u043B\u044C! "
    - langName: ENG
      phrase: Unreliable password!
    key: UnreliablePassword
    hide: 1
  - phrases:
    - langName: RU
      phrase: "\u0422\u0440\u0435\u0431\u0443\u0435\u0442\u0441\u044F \u043F\u0430\u0440\u043E\u043B\u044C! "
    - langName: ENG
      phrase: "Password required!\t"
    key: PasswordRequired
    hide: 1
  - phrases:
    - langName: RU
      phrase: "\u0423\u0447\u0435\u0442\u043D\u0430\u044F \u0437\u0430\u043F\u0438\u0441\u044C
        \u0443\u0436\u0435 \u0441\u0443\u0449\u0435\u0441\u0442\u0432\u0443\u0435\u0442
        \u0441 \u0434\u0440\u0443\u0433\u0438\u043C\u0438 \u0434\u0430\u043D\u043D\u044B\u043C\u0438! "
    - langName: ENG
      phrase: The account already exists with other data!
    key: AccountAlready
    hide: 1
  - phrases:
    - langName: RU
      phrase: "\u0412\u043E\u0439\u0442\u0438 \u043D\u0435 \u0443\u0434\u0430\u043B\u043E\u0441\u044C! "
    - langName: ENG
      phrase: Login Failed!
    key: LoginFailed
    hide: 1
  - phrases:
    - langName: RU
      phrase: "\u041D\u043E\u0432\u0430\u044F \u043F\u043E\u0447\u0442\u0430 \u043D\u0435
        \u043E\u0442\u043B\u0438\u0447\u0430\u0435\u0442\u0441\u044F \u043E\u0442
        \u0442\u0435\u043A\u0443\u0449\u0435\u0439!"
    - langName: ENG
      phrase: The new email is no different than the current email!
    key: ErrorChangeEmail
    hide: 1
  - phrases:
    - langName: RU
      phrase: "\u041F\u0430\u0440\u043E\u043B\u0438 \u043D\u0435 \u0441\u043E\u0432\u043F\u0430\u0434\u0430\u044E\u0442! "
    - langName: ENG
      phrase: The passwords don't match!
    key: ErrorChangePassword
    hide: 1
  - phrases:
    - langName: RU
      phrase: "\u041D\u0438\u043A \u043D\u0435 \u0431\u044B\u043B \u0438\u0437\u043C\u0435\u043D\u0435\u043D!"
    - langName: ENG
      phrase: The nickname wasn't changed!
    key: ErrorChangeNick
    hide: 1
  - phrases:
    - langName: RU
      phrase: "\u041F\u043E\u0432\u0442\u043E\u0440\u0438\u0442\u044C"
    - langName: ENG
      phrase: Repeat
    key: Repeat
    hide: 1
  - phrases:
    - langName: RU
      phrase: "\u041D\u0430\u0437\u0430\u0434"
    - langName: ENG
      phrase: Back
    key: Back
    hide: 1
  - phrases:
    - langName: RU
      phrase: "\u0412\u044B\u0445\u043E\u0434"
    - langName: ENG
      phrase: Exit
    key: Exit
    hide: 1
  - phrases:
    - langName: RU
      phrase: "\u041E\u043A"
    - langName: ENG
      phrase: Ok
    key: Ok
    hide: 1
  - phrases:
    - langName: RU
      phrase: "\u041D\u0435\u0442"
    - langName: ENG
      phrase: No
    key: No
    hide: 1
  - phrases:
    - langName: RU
      phrase: "\u0414\u0430"
    - langName: ENG
      phrase: Yes
    key: Yes
    hide: 1
  - phrases:
    - langName: RU
      phrase: "\u0417\u0430\u0433\u0440\u0443\u0437\u043A\u0430"
    - langName: ENG
      phrase: Loading
    key: Loading
    hide: 1
  - phrases:
    - langName: RU
      phrase: "\u041F\u043E\u0434\u043A\u043B\u044E\u0447\u0435\u043D\u0438\u0435"
    - langName: ENG
      phrase: Connecting
    key: Connecting
    hide: 1
  - phrases:
    - langName: RU
      phrase: "\u041D\u0410\u0427\u0410\u0422\u042C \u0418\u0413\u0420\u0423"
    - langName: ENG
      phrase: START GAME
    key: ButtonStartGame
    hide: 1
