-target:library
-out:"Library/Bee/artifacts/1900b0aE.dag/Unity.RenderPipelines.Universal.Runtime.dll"
-refout:"Library/Bee/artifacts/1900b0aE.dag/Unity.RenderPipelines.Universal.Runtime.ref.dll"
-define:UNITY_2021_3_1
-define:UNITY_2021_3
-define:UNITY_2021
-define:UNITY_5_3_OR_NEWER
-define:UNITY_5_4_OR_NEWER
-define:UNITY_5_5_OR_NEWER
-define:UNITY_5_6_OR_NEWER
-define:UNITY_2017_1_OR_NEWER
-define:UNITY_2017_2_OR_NEWER
-define:UNITY_2017_3_OR_NEWER
-define:UNITY_2017_4_OR_NEWER
-define:UNITY_2018_1_OR_NEWER
-define:UNITY_2018_2_OR_NEWER
-define:UNITY_2018_3_OR_NEWER
-define:UNITY_2018_4_OR_NEWER
-define:UNITY_2019_1_OR_NEWER
-define:UNITY_2019_2_OR_NEWER
-define:UNITY_2019_3_OR_NEWER
-define:UNITY_2019_4_OR_NEWER
-define:UNITY_2020_1_OR_NEWER
-define:UNITY_2020_2_OR_NEWER
-define:UNITY_2020_3_OR_NEWER
-define:UNITY_2021_1_OR_NEWER
-define:UNITY_2021_2_OR_NEWER
-define:UNITY_2021_3_OR_NEWER
-define:PLATFORM_ARCH_64
-define:UNITY_64
-define:UNITY_INCLUDE_TESTS
-define:USE_SEARCH_ENGINE_API
-define:USE_SEARCH_TABLE
-define:USE_SEARCH_MODULE
-define:USE_PROPERTY_DATABASE
-define:USE_SEARCH_EXTENSION_API
-define:SCENE_TEMPLATE_MODULE
-define:ENABLE_AR
-define:ENABLE_AUDIO
-define:ENABLE_CACHING
-define:ENABLE_CLOTH
-define:ENABLE_EVENT_QUEUE
-define:ENABLE_MICROPHONE
-define:ENABLE_MULTIPLE_DISPLAYS
-define:ENABLE_PHYSICS
-define:ENABLE_TEXTURE_STREAMING
-define:ENABLE_VIRTUALTEXTURING
-define:ENABLE_UNET
-define:ENABLE_LZMA
-define:ENABLE_UNITYEVENTS
-define:ENABLE_VR
-define:ENABLE_WEBCAM
-define:ENABLE_UNITYWEBREQUEST
-define:ENABLE_WWW
-define:ENABLE_CLOUD_SERVICES
-define:ENABLE_CLOUD_SERVICES_COLLAB
-define:ENABLE_CLOUD_SERVICES_COLLAB_SOFTLOCKS
-define:ENABLE_CLOUD_SERVICES_ADS
-define:ENABLE_CLOUD_SERVICES_USE_WEBREQUEST
-define:ENABLE_CLOUD_SERVICES_CRASH_REPORTING
-define:ENABLE_CLOUD_SERVICES_PURCHASING
-define:ENABLE_CLOUD_SERVICES_ANALYTICS
-define:ENABLE_CLOUD_SERVICES_UNET
-define:ENABLE_CLOUD_SERVICES_BUILD
-define:ENABLE_CLOUD_LICENSE
-define:ENABLE_EDITOR_HUB_LICENSE
-define:ENABLE_WEBSOCKET_CLIENT
-define:ENABLE_DIRECTOR_AUDIO
-define:ENABLE_DIRECTOR_TEXTURE
-define:ENABLE_MANAGED_JOBS
-define:ENABLE_MANAGED_TRANSFORM_JOBS
-define:ENABLE_MANAGED_ANIMATION_JOBS
-define:ENABLE_MANAGED_AUDIO_JOBS
-define:ENABLE_MANAGED_UNITYTLS
-define:INCLUDE_DYNAMIC_GI
-define:ENABLE_SCRIPTING_GC_WBARRIERS
-define:PLATFORM_SUPPORTS_MONO
-define:RENDER_SOFTWARE_CURSOR
-define:ENABLE_VIDEO
-define:ENABLE_ACCELERATOR_CLIENT_DEBUGGING
-define:PLATFORM_STANDALONE
-define:TEXTCORE_1_0_OR_NEWER
-define:PLATFORM_STANDALONE_WIN
-define:UNITY_STANDALONE_WIN
-define:UNITY_STANDALONE
-define:ENABLE_RUNTIME_GI
-define:ENABLE_MOVIES
-define:ENABLE_NETWORK
-define:ENABLE_NVIDIA
-define:ENABLE_CRUNCH_TEXTURE_COMPRESSION
-define:ENABLE_OUT_OF_PROCESS_CRASH_HANDLER
-define:ENABLE_CLUSTER_SYNC
-define:ENABLE_CLUSTERINPUT
-define:PLATFORM_UPDATES_TIME_OUTSIDE_OF_PLAYER_LOOP
-define:GFXDEVICE_WAITFOREVENT_MESSAGEPUMP
-define:ENABLE_WEBSOCKET_HOST
-define:ENABLE_MONO
-define:NET_4_6
-define:NET_UNITY_4_8
-define:ENABLE_PROFILER
-define:DEBUG
-define:TRACE
-define:UNITY_ASSERTIONS
-define:UNITY_EDITOR
-define:UNITY_EDITOR_64
-define:UNITY_EDITOR_WIN
-define:ENABLE_UNITY_COLLECTIONS_CHECKS
-define:ENABLE_BURST_AOT
-define:UNITY_TEAM_LICENSE
-define:ENABLE_CUSTOM_RENDER_TEXTURE
-define:ENABLE_DIRECTOR
-define:ENABLE_LOCALIZATION
-define:ENABLE_SPRITES
-define:ENABLE_TERRAIN
-define:ENABLE_TILEMAP
-define:ENABLE_TIMELINE
-define:ENABLE_LEGACY_INPUT_MANAGER
-define:MIRROR
-define:MIRROR_17_0_OR_NEWER
-define:MIRROR_18_0_OR_NEWER
-define:MIRROR_24_0_OR_NEWER
-define:MIRROR_26_0_OR_NEWER
-define:MIRROR_27_0_OR_NEWER
-define:MIRROR_28_0_OR_NEWER
-define:MIRROR_29_0_OR_NEWER
-define:MIRROR_30_0_OR_NEWER
-define:MIRROR_30_5_2_OR_NEWER
-define:MIRROR_32_1_2_OR_NEWER
-define:MIRROR_32_1_4_OR_NEWER
-define:MIRROR_35_0_OR_NEWER
-define:MIRROR_35_1_OR_NEWER
-define:MIRROR_37_0_OR_NEWER
-define:MIRROR_38_0_OR_NEWER
-define:MIRROR_39_0_OR_NEWER
-define:MIRROR_40_0_OR_NEWER
-define:MIRROR_41_0_OR_NEWER
-define:MIRROR_42_0_OR_NEWER
-define:MIRROR_43_0_OR_NEWER
-define:MIRROR_44_0_OR_NEWER
-define:MIRROR_46_0_OR_NEWER
-define:MIRROR_47_0_OR_NEWER
-define:MIRROR_53_0_OR_NEWER
-define:MIRROR_55_0_OR_NEWER
-define:MIRROR_57_0_OR_NEWER
-define:MIRROR_58_0_OR_NEWER
-define:MIRROR_65_0_OR_NEWER
-define:MIRROR_66_0_OR_NEWER
-define:UNITY_POST_PROCESSING_STACK_V2
-define:ENABLE_BURST_1_0_0_OR_NEWER
-define:ENABLE_VR_MODULE
-define:ENABLE_XR_MODULE
-define:USING_ANIMATION_MODULE
-define:USING_PHYSICS2D_MODULE
-define:CSHARP_7_OR_LATER
-define:CSHARP_7_3_OR_NEWER
-r:"Assets/DLL/MySql.Data.dll"
-r:"Assets/ExternalDependencyManager/Editor/1.2.170/Google.IOSResolver.dll"
-r:"Assets/ExternalDependencyManager/Editor/1.2.170/Google.JarResolver.dll"
-r:"Assets/ExternalDependencyManager/Editor/1.2.170/Google.PackageManagerResolver.dll"
-r:"Assets/ExternalDependencyManager/Editor/1.2.170/Google.VersionHandlerImpl.dll"
-r:"Assets/ExternalDependencyManager/Editor/Google.VersionHandler.dll"
-r:"Assets/Firebase/Editor/Firebase.Editor.dll"
-r:"Assets/Firebase/Plugins/Firebase.App.dll"
-r:"Assets/Firebase/Plugins/Firebase.Auth.dll"
-r:"Assets/Firebase/Plugins/Firebase.Platform.dll"
-r:"Assets/Firebase/Plugins/Firebase.TaskExtension.dll"
-r:"Assets/Firebase/Plugins/Google.MiniJson.dll"
-r:"Assets/JsonDotNet/Assemblies/Standalone/Newtonsoft.Json.dll"
-r:"Assets/Mirror/Plugins/Mono.Cecil/Mono.CecilX.dll"
-r:"Assets/Mirror/Plugins/Mono.Cecil/Mono.CecilX.Mdb.dll"
-r:"Assets/Mirror/Plugins/Mono.Cecil/Mono.CecilX.Pdb.dll"
-r:"Assets/Mirror/Plugins/Mono.Cecil/Mono.CecilX.Rocks.dll"
-r:"Assets/Parse/Plugins/dotNet45/Unity.Compat.dll"
-r:"Assets/Parse/Plugins/dotNet45/Unity.Tasks.dll"
-r:"C:/Program Files/Unity/Hub/Editor/2021.3.1f1/Editor/Data/Managed/UnityEditor.Graphs.dll"
-r:"C:/Program Files/Unity/Hub/Editor/2021.3.1f1/Editor/Data/Managed/UnityEngine/UnityEditor.CoreModule.dll"
-r:"C:/Program Files/Unity/Hub/Editor/2021.3.1f1/Editor/Data/Managed/UnityEngine/UnityEditor.DeviceSimulatorModule.dll"
-r:"C:/Program Files/Unity/Hub/Editor/2021.3.1f1/Editor/Data/Managed/UnityEngine/UnityEditor.DiagnosticsModule.dll"
-r:"C:/Program Files/Unity/Hub/Editor/2021.3.1f1/Editor/Data/Managed/UnityEngine/UnityEditor.dll"
-r:"C:/Program Files/Unity/Hub/Editor/2021.3.1f1/Editor/Data/Managed/UnityEngine/UnityEditor.GraphViewModule.dll"
-r:"C:/Program Files/Unity/Hub/Editor/2021.3.1f1/Editor/Data/Managed/UnityEngine/UnityEditor.PackageManagerUIModule.dll"
-r:"C:/Program Files/Unity/Hub/Editor/2021.3.1f1/Editor/Data/Managed/UnityEngine/UnityEditor.QuickSearchModule.dll"
-r:"C:/Program Files/Unity/Hub/Editor/2021.3.1f1/Editor/Data/Managed/UnityEngine/UnityEditor.SceneTemplateModule.dll"
-r:"C:/Program Files/Unity/Hub/Editor/2021.3.1f1/Editor/Data/Managed/UnityEngine/UnityEditor.TextCoreFontEngineModule.dll"
-r:"C:/Program Files/Unity/Hub/Editor/2021.3.1f1/Editor/Data/Managed/UnityEngine/UnityEditor.TextCoreTextEngineModule.dll"
-r:"C:/Program Files/Unity/Hub/Editor/2021.3.1f1/Editor/Data/Managed/UnityEngine/UnityEditor.UIBuilderModule.dll"
-r:"C:/Program Files/Unity/Hub/Editor/2021.3.1f1/Editor/Data/Managed/UnityEngine/UnityEditor.UIElementsModule.dll"
-r:"C:/Program Files/Unity/Hub/Editor/2021.3.1f1/Editor/Data/Managed/UnityEngine/UnityEditor.UIElementsSamplesModule.dll"
-r:"C:/Program Files/Unity/Hub/Editor/2021.3.1f1/Editor/Data/Managed/UnityEngine/UnityEditor.UIServiceModule.dll"
-r:"C:/Program Files/Unity/Hub/Editor/2021.3.1f1/Editor/Data/Managed/UnityEngine/UnityEditor.UnityConnectModule.dll"
-r:"C:/Program Files/Unity/Hub/Editor/2021.3.1f1/Editor/Data/Managed/UnityEngine/UnityEngine.AccessibilityModule.dll"
-r:"C:/Program Files/Unity/Hub/Editor/2021.3.1f1/Editor/Data/Managed/UnityEngine/UnityEngine.AIModule.dll"
-r:"C:/Program Files/Unity/Hub/Editor/2021.3.1f1/Editor/Data/Managed/UnityEngine/UnityEngine.AndroidJNIModule.dll"
-r:"C:/Program Files/Unity/Hub/Editor/2021.3.1f1/Editor/Data/Managed/UnityEngine/UnityEngine.AnimationModule.dll"
-r:"C:/Program Files/Unity/Hub/Editor/2021.3.1f1/Editor/Data/Managed/UnityEngine/UnityEngine.ARModule.dll"
-r:"C:/Program Files/Unity/Hub/Editor/2021.3.1f1/Editor/Data/Managed/UnityEngine/UnityEngine.AssetBundleModule.dll"
-r:"C:/Program Files/Unity/Hub/Editor/2021.3.1f1/Editor/Data/Managed/UnityEngine/UnityEngine.AudioModule.dll"
-r:"C:/Program Files/Unity/Hub/Editor/2021.3.1f1/Editor/Data/Managed/UnityEngine/UnityEngine.ClothModule.dll"
-r:"C:/Program Files/Unity/Hub/Editor/2021.3.1f1/Editor/Data/Managed/UnityEngine/UnityEngine.ClusterInputModule.dll"
-r:"C:/Program Files/Unity/Hub/Editor/2021.3.1f1/Editor/Data/Managed/UnityEngine/UnityEngine.ClusterRendererModule.dll"
-r:"C:/Program Files/Unity/Hub/Editor/2021.3.1f1/Editor/Data/Managed/UnityEngine/UnityEngine.CoreModule.dll"
-r:"C:/Program Files/Unity/Hub/Editor/2021.3.1f1/Editor/Data/Managed/UnityEngine/UnityEngine.CrashReportingModule.dll"
-r:"C:/Program Files/Unity/Hub/Editor/2021.3.1f1/Editor/Data/Managed/UnityEngine/UnityEngine.DirectorModule.dll"
-r:"C:/Program Files/Unity/Hub/Editor/2021.3.1f1/Editor/Data/Managed/UnityEngine/UnityEngine.dll"
-r:"C:/Program Files/Unity/Hub/Editor/2021.3.1f1/Editor/Data/Managed/UnityEngine/UnityEngine.DSPGraphModule.dll"
-r:"C:/Program Files/Unity/Hub/Editor/2021.3.1f1/Editor/Data/Managed/UnityEngine/UnityEngine.GameCenterModule.dll"
-r:"C:/Program Files/Unity/Hub/Editor/2021.3.1f1/Editor/Data/Managed/UnityEngine/UnityEngine.GIModule.dll"
-r:"C:/Program Files/Unity/Hub/Editor/2021.3.1f1/Editor/Data/Managed/UnityEngine/UnityEngine.GridModule.dll"
-r:"C:/Program Files/Unity/Hub/Editor/2021.3.1f1/Editor/Data/Managed/UnityEngine/UnityEngine.HotReloadModule.dll"
-r:"C:/Program Files/Unity/Hub/Editor/2021.3.1f1/Editor/Data/Managed/UnityEngine/UnityEngine.ImageConversionModule.dll"
-r:"C:/Program Files/Unity/Hub/Editor/2021.3.1f1/Editor/Data/Managed/UnityEngine/UnityEngine.IMGUIModule.dll"
-r:"C:/Program Files/Unity/Hub/Editor/2021.3.1f1/Editor/Data/Managed/UnityEngine/UnityEngine.InputLegacyModule.dll"
-r:"C:/Program Files/Unity/Hub/Editor/2021.3.1f1/Editor/Data/Managed/UnityEngine/UnityEngine.InputModule.dll"
-r:"C:/Program Files/Unity/Hub/Editor/2021.3.1f1/Editor/Data/Managed/UnityEngine/UnityEngine.JSONSerializeModule.dll"
-r:"C:/Program Files/Unity/Hub/Editor/2021.3.1f1/Editor/Data/Managed/UnityEngine/UnityEngine.LocalizationModule.dll"
-r:"C:/Program Files/Unity/Hub/Editor/2021.3.1f1/Editor/Data/Managed/UnityEngine/UnityEngine.ParticleSystemModule.dll"
-r:"C:/Program Files/Unity/Hub/Editor/2021.3.1f1/Editor/Data/Managed/UnityEngine/UnityEngine.PerformanceReportingModule.dll"
-r:"C:/Program Files/Unity/Hub/Editor/2021.3.1f1/Editor/Data/Managed/UnityEngine/UnityEngine.Physics2DModule.dll"
-r:"C:/Program Files/Unity/Hub/Editor/2021.3.1f1/Editor/Data/Managed/UnityEngine/UnityEngine.PhysicsModule.dll"
-r:"C:/Program Files/Unity/Hub/Editor/2021.3.1f1/Editor/Data/Managed/UnityEngine/UnityEngine.ProfilerModule.dll"
-r:"C:/Program Files/Unity/Hub/Editor/2021.3.1f1/Editor/Data/Managed/UnityEngine/UnityEngine.RuntimeInitializeOnLoadManagerInitializerModule.dll"
-r:"C:/Program Files/Unity/Hub/Editor/2021.3.1f1/Editor/Data/Managed/UnityEngine/UnityEngine.ScreenCaptureModule.dll"
-r:"C:/Program Files/Unity/Hub/Editor/2021.3.1f1/Editor/Data/Managed/UnityEngine/UnityEngine.SharedInternalsModule.dll"
-r:"C:/Program Files/Unity/Hub/Editor/2021.3.1f1/Editor/Data/Managed/UnityEngine/UnityEngine.SpriteMaskModule.dll"
-r:"C:/Program Files/Unity/Hub/Editor/2021.3.1f1/Editor/Data/Managed/UnityEngine/UnityEngine.SpriteShapeModule.dll"
-r:"C:/Program Files/Unity/Hub/Editor/2021.3.1f1/Editor/Data/Managed/UnityEngine/UnityEngine.StreamingModule.dll"
-r:"C:/Program Files/Unity/Hub/Editor/2021.3.1f1/Editor/Data/Managed/UnityEngine/UnityEngine.SubstanceModule.dll"
-r:"C:/Program Files/Unity/Hub/Editor/2021.3.1f1/Editor/Data/Managed/UnityEngine/UnityEngine.SubsystemsModule.dll"
-r:"C:/Program Files/Unity/Hub/Editor/2021.3.1f1/Editor/Data/Managed/UnityEngine/UnityEngine.TerrainModule.dll"
-r:"C:/Program Files/Unity/Hub/Editor/2021.3.1f1/Editor/Data/Managed/UnityEngine/UnityEngine.TerrainPhysicsModule.dll"
-r:"C:/Program Files/Unity/Hub/Editor/2021.3.1f1/Editor/Data/Managed/UnityEngine/UnityEngine.TextCoreFontEngineModule.dll"
-r:"C:/Program Files/Unity/Hub/Editor/2021.3.1f1/Editor/Data/Managed/UnityEngine/UnityEngine.TextCoreTextEngineModule.dll"
-r:"C:/Program Files/Unity/Hub/Editor/2021.3.1f1/Editor/Data/Managed/UnityEngine/UnityEngine.TextRenderingModule.dll"
-r:"C:/Program Files/Unity/Hub/Editor/2021.3.1f1/Editor/Data/Managed/UnityEngine/UnityEngine.TilemapModule.dll"
-r:"C:/Program Files/Unity/Hub/Editor/2021.3.1f1/Editor/Data/Managed/UnityEngine/UnityEngine.TLSModule.dll"
-r:"C:/Program Files/Unity/Hub/Editor/2021.3.1f1/Editor/Data/Managed/UnityEngine/UnityEngine.UIElementsModule.dll"
-r:"C:/Program Files/Unity/Hub/Editor/2021.3.1f1/Editor/Data/Managed/UnityEngine/UnityEngine.UIElementsNativeModule.dll"
-r:"C:/Program Files/Unity/Hub/Editor/2021.3.1f1/Editor/Data/Managed/UnityEngine/UnityEngine.UIModule.dll"
-r:"C:/Program Files/Unity/Hub/Editor/2021.3.1f1/Editor/Data/Managed/UnityEngine/UnityEngine.UmbraModule.dll"
-r:"C:/Program Files/Unity/Hub/Editor/2021.3.1f1/Editor/Data/Managed/UnityEngine/UnityEngine.UNETModule.dll"
-r:"C:/Program Files/Unity/Hub/Editor/2021.3.1f1/Editor/Data/Managed/UnityEngine/UnityEngine.UnityAnalyticsModule.dll"
-r:"C:/Program Files/Unity/Hub/Editor/2021.3.1f1/Editor/Data/Managed/UnityEngine/UnityEngine.UnityConnectModule.dll"
-r:"C:/Program Files/Unity/Hub/Editor/2021.3.1f1/Editor/Data/Managed/UnityEngine/UnityEngine.UnityCurlModule.dll"
-r:"C:/Program Files/Unity/Hub/Editor/2021.3.1f1/Editor/Data/Managed/UnityEngine/UnityEngine.UnityTestProtocolModule.dll"
-r:"C:/Program Files/Unity/Hub/Editor/2021.3.1f1/Editor/Data/Managed/UnityEngine/UnityEngine.UnityWebRequestAssetBundleModule.dll"
-r:"C:/Program Files/Unity/Hub/Editor/2021.3.1f1/Editor/Data/Managed/UnityEngine/UnityEngine.UnityWebRequestAudioModule.dll"
-r:"C:/Program Files/Unity/Hub/Editor/2021.3.1f1/Editor/Data/Managed/UnityEngine/UnityEngine.UnityWebRequestModule.dll"
-r:"C:/Program Files/Unity/Hub/Editor/2021.3.1f1/Editor/Data/Managed/UnityEngine/UnityEngine.UnityWebRequestTextureModule.dll"
-r:"C:/Program Files/Unity/Hub/Editor/2021.3.1f1/Editor/Data/Managed/UnityEngine/UnityEngine.UnityWebRequestWWWModule.dll"
-r:"C:/Program Files/Unity/Hub/Editor/2021.3.1f1/Editor/Data/Managed/UnityEngine/UnityEngine.VehiclesModule.dll"
-r:"C:/Program Files/Unity/Hub/Editor/2021.3.1f1/Editor/Data/Managed/UnityEngine/UnityEngine.VFXModule.dll"
-r:"C:/Program Files/Unity/Hub/Editor/2021.3.1f1/Editor/Data/Managed/UnityEngine/UnityEngine.VideoModule.dll"
-r:"C:/Program Files/Unity/Hub/Editor/2021.3.1f1/Editor/Data/Managed/UnityEngine/UnityEngine.VirtualTexturingModule.dll"
-r:"C:/Program Files/Unity/Hub/Editor/2021.3.1f1/Editor/Data/Managed/UnityEngine/UnityEngine.VRModule.dll"
-r:"C:/Program Files/Unity/Hub/Editor/2021.3.1f1/Editor/Data/Managed/UnityEngine/UnityEngine.WindModule.dll"
-r:"C:/Program Files/Unity/Hub/Editor/2021.3.1f1/Editor/Data/Managed/UnityEngine/UnityEngine.XRModule.dll"
-r:"C:/Program Files/Unity/Hub/Editor/2021.3.1f1/Editor/Data/PlaybackEngines/AndroidPlayer/Unity.Android.Gradle.dll"
-r:"C:/Program Files/Unity/Hub/Editor/2021.3.1f1/Editor/Data/PlaybackEngines/AndroidPlayer/Unity.Android.Types.dll"
-r:"C:/Program Files/Unity/Hub/Editor/2021.3.1f1/Editor/Data/PlaybackEngines/AndroidPlayer/UnityEditor.Android.Extensions.dll"
-r:"C:/Program Files/Unity/Hub/Editor/2021.3.1f1/Editor/Data/PlaybackEngines/iOSSupport/UnityEditor.iOS.Extensions.Common.dll"
-r:"C:/Program Files/Unity/Hub/Editor/2021.3.1f1/Editor/Data/PlaybackEngines/iOSSupport/UnityEditor.iOS.Extensions.dll"
-r:"C:/Program Files/Unity/Hub/Editor/2021.3.1f1/Editor/Data/PlaybackEngines/iOSSupport/UnityEditor.iOS.Extensions.Xcode.dll"
-r:"C:/Program Files/Unity/Hub/Editor/2021.3.1f1/Editor/Data/PlaybackEngines/LinuxStandaloneSupport/UnityEditor.LinuxStandalone.Extensions.dll"
-r:"C:/Program Files/Unity/Hub/Editor/2021.3.1f1/Editor/Data/PlaybackEngines/WindowsStandaloneSupport/UnityEditor.WindowsStandalone.Extensions.dll"
-r:"C:/Program Files/Unity/Hub/Editor/2021.3.1f1/Editor/Data/UnityReferenceAssemblies/unity-4.8-api/Facades/Microsoft.Win32.Primitives.dll"
-r:"C:/Program Files/Unity/Hub/Editor/2021.3.1f1/Editor/Data/UnityReferenceAssemblies/unity-4.8-api/Facades/netstandard.dll"
-r:"C:/Program Files/Unity/Hub/Editor/2021.3.1f1/Editor/Data/UnityReferenceAssemblies/unity-4.8-api/Facades/System.AppContext.dll"
-r:"C:/Program Files/Unity/Hub/Editor/2021.3.1f1/Editor/Data/UnityReferenceAssemblies/unity-4.8-api/Facades/System.Buffers.dll"
-r:"C:/Program Files/Unity/Hub/Editor/2021.3.1f1/Editor/Data/UnityReferenceAssemblies/unity-4.8-api/Facades/System.Collections.Concurrent.dll"
-r:"C:/Program Files/Unity/Hub/Editor/2021.3.1f1/Editor/Data/UnityReferenceAssemblies/unity-4.8-api/Facades/System.Collections.dll"
-r:"C:/Program Files/Unity/Hub/Editor/2021.3.1f1/Editor/Data/UnityReferenceAssemblies/unity-4.8-api/Facades/System.Collections.NonGeneric.dll"
-r:"C:/Program Files/Unity/Hub/Editor/2021.3.1f1/Editor/Data/UnityReferenceAssemblies/unity-4.8-api/Facades/System.Collections.Specialized.dll"
-r:"C:/Program Files/Unity/Hub/Editor/2021.3.1f1/Editor/Data/UnityReferenceAssemblies/unity-4.8-api/Facades/System.ComponentModel.Annotations.dll"
-r:"C:/Program Files/Unity/Hub/Editor/2021.3.1f1/Editor/Data/UnityReferenceAssemblies/unity-4.8-api/Facades/System.ComponentModel.dll"
-r:"C:/Program Files/Unity/Hub/Editor/2021.3.1f1/Editor/Data/UnityReferenceAssemblies/unity-4.8-api/Facades/System.ComponentModel.EventBasedAsync.dll"
-r:"C:/Program Files/Unity/Hub/Editor/2021.3.1f1/Editor/Data/UnityReferenceAssemblies/unity-4.8-api/Facades/System.ComponentModel.Primitives.dll"
-r:"C:/Program Files/Unity/Hub/Editor/2021.3.1f1/Editor/Data/UnityReferenceAssemblies/unity-4.8-api/Facades/System.ComponentModel.TypeConverter.dll"
-r:"C:/Program Files/Unity/Hub/Editor/2021.3.1f1/Editor/Data/UnityReferenceAssemblies/unity-4.8-api/Facades/System.Console.dll"
-r:"C:/Program Files/Unity/Hub/Editor/2021.3.1f1/Editor/Data/UnityReferenceAssemblies/unity-4.8-api/Facades/System.Data.Common.dll"
-r:"C:/Program Files/Unity/Hub/Editor/2021.3.1f1/Editor/Data/UnityReferenceAssemblies/unity-4.8-api/Facades/System.Diagnostics.Contracts.dll"
-r:"C:/Program Files/Unity/Hub/Editor/2021.3.1f1/Editor/Data/UnityReferenceAssemblies/unity-4.8-api/Facades/System.Diagnostics.Debug.dll"
-r:"C:/Program Files/Unity/Hub/Editor/2021.3.1f1/Editor/Data/UnityReferenceAssemblies/unity-4.8-api/Facades/System.Diagnostics.FileVersionInfo.dll"
-r:"C:/Program Files/Unity/Hub/Editor/2021.3.1f1/Editor/Data/UnityReferenceAssemblies/unity-4.8-api/Facades/System.Diagnostics.Process.dll"
-r:"C:/Program Files/Unity/Hub/Editor/2021.3.1f1/Editor/Data/UnityReferenceAssemblies/unity-4.8-api/Facades/System.Diagnostics.StackTrace.dll"
-r:"C:/Program Files/Unity/Hub/Editor/2021.3.1f1/Editor/Data/UnityReferenceAssemblies/unity-4.8-api/Facades/System.Diagnostics.TextWriterTraceListener.dll"
-r:"C:/Program Files/Unity/Hub/Editor/2021.3.1f1/Editor/Data/UnityReferenceAssemblies/unity-4.8-api/Facades/System.Diagnostics.Tools.dll"
-r:"C:/Program Files/Unity/Hub/Editor/2021.3.1f1/Editor/Data/UnityReferenceAssemblies/unity-4.8-api/Facades/System.Diagnostics.TraceSource.dll"
-r:"C:/Program Files/Unity/Hub/Editor/2021.3.1f1/Editor/Data/UnityReferenceAssemblies/unity-4.8-api/Facades/System.Drawing.Primitives.dll"
-r:"C:/Program Files/Unity/Hub/Editor/2021.3.1f1/Editor/Data/UnityReferenceAssemblies/unity-4.8-api/Facades/System.Dynamic.Runtime.dll"
-r:"C:/Program Files/Unity/Hub/Editor/2021.3.1f1/Editor/Data/UnityReferenceAssemblies/unity-4.8-api/Facades/System.Globalization.Calendars.dll"
-r:"C:/Program Files/Unity/Hub/Editor/2021.3.1f1/Editor/Data/UnityReferenceAssemblies/unity-4.8-api/Facades/System.Globalization.dll"
-r:"C:/Program Files/Unity/Hub/Editor/2021.3.1f1/Editor/Data/UnityReferenceAssemblies/unity-4.8-api/Facades/System.Globalization.Extensions.dll"
-r:"C:/Program Files/Unity/Hub/Editor/2021.3.1f1/Editor/Data/UnityReferenceAssemblies/unity-4.8-api/Facades/System.IO.Compression.ZipFile.dll"
-r:"C:/Program Files/Unity/Hub/Editor/2021.3.1f1/Editor/Data/UnityReferenceAssemblies/unity-4.8-api/Facades/System.IO.dll"
-r:"C:/Program Files/Unity/Hub/Editor/2021.3.1f1/Editor/Data/UnityReferenceAssemblies/unity-4.8-api/Facades/System.IO.FileSystem.dll"
-r:"C:/Program Files/Unity/Hub/Editor/2021.3.1f1/Editor/Data/UnityReferenceAssemblies/unity-4.8-api/Facades/System.IO.FileSystem.DriveInfo.dll"
-r:"C:/Program Files/Unity/Hub/Editor/2021.3.1f1/Editor/Data/UnityReferenceAssemblies/unity-4.8-api/Facades/System.IO.FileSystem.Primitives.dll"
-r:"C:/Program Files/Unity/Hub/Editor/2021.3.1f1/Editor/Data/UnityReferenceAssemblies/unity-4.8-api/Facades/System.IO.FileSystem.Watcher.dll"
-r:"C:/Program Files/Unity/Hub/Editor/2021.3.1f1/Editor/Data/UnityReferenceAssemblies/unity-4.8-api/Facades/System.IO.IsolatedStorage.dll"
-r:"C:/Program Files/Unity/Hub/Editor/2021.3.1f1/Editor/Data/UnityReferenceAssemblies/unity-4.8-api/Facades/System.IO.MemoryMappedFiles.dll"
-r:"C:/Program Files/Unity/Hub/Editor/2021.3.1f1/Editor/Data/UnityReferenceAssemblies/unity-4.8-api/Facades/System.IO.Pipes.dll"
-r:"C:/Program Files/Unity/Hub/Editor/2021.3.1f1/Editor/Data/UnityReferenceAssemblies/unity-4.8-api/Facades/System.IO.UnmanagedMemoryStream.dll"
-r:"C:/Program Files/Unity/Hub/Editor/2021.3.1f1/Editor/Data/UnityReferenceAssemblies/unity-4.8-api/Facades/System.Linq.dll"
-r:"C:/Program Files/Unity/Hub/Editor/2021.3.1f1/Editor/Data/UnityReferenceAssemblies/unity-4.8-api/Facades/System.Linq.Expressions.dll"
-r:"C:/Program Files/Unity/Hub/Editor/2021.3.1f1/Editor/Data/UnityReferenceAssemblies/unity-4.8-api/Facades/System.Linq.Parallel.dll"
-r:"C:/Program Files/Unity/Hub/Editor/2021.3.1f1/Editor/Data/UnityReferenceAssemblies/unity-4.8-api/Facades/System.Linq.Queryable.dll"
-r:"C:/Program Files/Unity/Hub/Editor/2021.3.1f1/Editor/Data/UnityReferenceAssemblies/unity-4.8-api/Facades/System.Memory.dll"
-r:"C:/Program Files/Unity/Hub/Editor/2021.3.1f1/Editor/Data/UnityReferenceAssemblies/unity-4.8-api/Facades/System.Net.Http.Rtc.dll"
-r:"C:/Program Files/Unity/Hub/Editor/2021.3.1f1/Editor/Data/UnityReferenceAssemblies/unity-4.8-api/Facades/System.Net.NameResolution.dll"
-r:"C:/Program Files/Unity/Hub/Editor/2021.3.1f1/Editor/Data/UnityReferenceAssemblies/unity-4.8-api/Facades/System.Net.NetworkInformation.dll"
-r:"C:/Program Files/Unity/Hub/Editor/2021.3.1f1/Editor/Data/UnityReferenceAssemblies/unity-4.8-api/Facades/System.Net.Ping.dll"
-r:"C:/Program Files/Unity/Hub/Editor/2021.3.1f1/Editor/Data/UnityReferenceAssemblies/unity-4.8-api/Facades/System.Net.Primitives.dll"
-r:"C:/Program Files/Unity/Hub/Editor/2021.3.1f1/Editor/Data/UnityReferenceAssemblies/unity-4.8-api/Facades/System.Net.Requests.dll"
-r:"C:/Program Files/Unity/Hub/Editor/2021.3.1f1/Editor/Data/UnityReferenceAssemblies/unity-4.8-api/Facades/System.Net.Security.dll"
-r:"C:/Program Files/Unity/Hub/Editor/2021.3.1f1/Editor/Data/UnityReferenceAssemblies/unity-4.8-api/Facades/System.Net.Sockets.dll"
-r:"C:/Program Files/Unity/Hub/Editor/2021.3.1f1/Editor/Data/UnityReferenceAssemblies/unity-4.8-api/Facades/System.Net.WebHeaderCollection.dll"
-r:"C:/Program Files/Unity/Hub/Editor/2021.3.1f1/Editor/Data/UnityReferenceAssemblies/unity-4.8-api/Facades/System.Net.WebSockets.Client.dll"
-r:"C:/Program Files/Unity/Hub/Editor/2021.3.1f1/Editor/Data/UnityReferenceAssemblies/unity-4.8-api/Facades/System.Net.WebSockets.dll"
-r:"C:/Program Files/Unity/Hub/Editor/2021.3.1f1/Editor/Data/UnityReferenceAssemblies/unity-4.8-api/Facades/System.ObjectModel.dll"
-r:"C:/Program Files/Unity/Hub/Editor/2021.3.1f1/Editor/Data/UnityReferenceAssemblies/unity-4.8-api/Facades/System.Reflection.DispatchProxy.dll"
-r:"C:/Program Files/Unity/Hub/Editor/2021.3.1f1/Editor/Data/UnityReferenceAssemblies/unity-4.8-api/Facades/System.Reflection.dll"
-r:"C:/Program Files/Unity/Hub/Editor/2021.3.1f1/Editor/Data/UnityReferenceAssemblies/unity-4.8-api/Facades/System.Reflection.Emit.dll"
-r:"C:/Program Files/Unity/Hub/Editor/2021.3.1f1/Editor/Data/UnityReferenceAssemblies/unity-4.8-api/Facades/System.Reflection.Emit.ILGeneration.dll"
-r:"C:/Program Files/Unity/Hub/Editor/2021.3.1f1/Editor/Data/UnityReferenceAssemblies/unity-4.8-api/Facades/System.Reflection.Emit.Lightweight.dll"
-r:"C:/Program Files/Unity/Hub/Editor/2021.3.1f1/Editor/Data/UnityReferenceAssemblies/unity-4.8-api/Facades/System.Reflection.Extensions.dll"
-r:"C:/Program Files/Unity/Hub/Editor/2021.3.1f1/Editor/Data/UnityReferenceAssemblies/unity-4.8-api/Facades/System.Reflection.Primitives.dll"
-r:"C:/Program Files/Unity/Hub/Editor/2021.3.1f1/Editor/Data/UnityReferenceAssemblies/unity-4.8-api/Facades/System.Resources.Reader.dll"
-r:"C:/Program Files/Unity/Hub/Editor/2021.3.1f1/Editor/Data/UnityReferenceAssemblies/unity-4.8-api/Facades/System.Resources.ResourceManager.dll"
-r:"C:/Program Files/Unity/Hub/Editor/2021.3.1f1/Editor/Data/UnityReferenceAssemblies/unity-4.8-api/Facades/System.Resources.Writer.dll"
-r:"C:/Program Files/Unity/Hub/Editor/2021.3.1f1/Editor/Data/UnityReferenceAssemblies/unity-4.8-api/Facades/System.Runtime.CompilerServices.VisualC.dll"
-r:"C:/Program Files/Unity/Hub/Editor/2021.3.1f1/Editor/Data/UnityReferenceAssemblies/unity-4.8-api/Facades/System.Runtime.dll"
-r:"C:/Program Files/Unity/Hub/Editor/2021.3.1f1/Editor/Data/UnityReferenceAssemblies/unity-4.8-api/Facades/System.Runtime.Extensions.dll"
-r:"C:/Program Files/Unity/Hub/Editor/2021.3.1f1/Editor/Data/UnityReferenceAssemblies/unity-4.8-api/Facades/System.Runtime.Handles.dll"
-r:"C:/Program Files/Unity/Hub/Editor/2021.3.1f1/Editor/Data/UnityReferenceAssemblies/unity-4.8-api/Facades/System.Runtime.InteropServices.dll"
-r:"C:/Program Files/Unity/Hub/Editor/2021.3.1f1/Editor/Data/UnityReferenceAssemblies/unity-4.8-api/Facades/System.Runtime.InteropServices.RuntimeInformation.dll"
-r:"C:/Program Files/Unity/Hub/Editor/2021.3.1f1/Editor/Data/UnityReferenceAssemblies/unity-4.8-api/Facades/System.Runtime.InteropServices.WindowsRuntime.dll"
-r:"C:/Program Files/Unity/Hub/Editor/2021.3.1f1/Editor/Data/UnityReferenceAssemblies/unity-4.8-api/Facades/System.Runtime.Numerics.dll"
-r:"C:/Program Files/Unity/Hub/Editor/2021.3.1f1/Editor/Data/UnityReferenceAssemblies/unity-4.8-api/Facades/System.Runtime.Serialization.Formatters.dll"
-r:"C:/Program Files/Unity/Hub/Editor/2021.3.1f1/Editor/Data/UnityReferenceAssemblies/unity-4.8-api/Facades/System.Runtime.Serialization.Json.dll"
-r:"C:/Program Files/Unity/Hub/Editor/2021.3.1f1/Editor/Data/UnityReferenceAssemblies/unity-4.8-api/Facades/System.Runtime.Serialization.Primitives.dll"
-r:"C:/Program Files/Unity/Hub/Editor/2021.3.1f1/Editor/Data/UnityReferenceAssemblies/unity-4.8-api/Facades/System.Runtime.Serialization.Xml.dll"
-r:"C:/Program Files/Unity/Hub/Editor/2021.3.1f1/Editor/Data/UnityReferenceAssemblies/unity-4.8-api/Facades/System.Security.Claims.dll"
-r:"C:/Program Files/Unity/Hub/Editor/2021.3.1f1/Editor/Data/UnityReferenceAssemblies/unity-4.8-api/Facades/System.Security.Cryptography.Algorithms.dll"
-r:"C:/Program Files/Unity/Hub/Editor/2021.3.1f1/Editor/Data/UnityReferenceAssemblies/unity-4.8-api/Facades/System.Security.Cryptography.Csp.dll"
-r:"C:/Program Files/Unity/Hub/Editor/2021.3.1f1/Editor/Data/UnityReferenceAssemblies/unity-4.8-api/Facades/System.Security.Cryptography.Encoding.dll"
-r:"C:/Program Files/Unity/Hub/Editor/2021.3.1f1/Editor/Data/UnityReferenceAssemblies/unity-4.8-api/Facades/System.Security.Cryptography.Primitives.dll"
-r:"C:/Program Files/Unity/Hub/Editor/2021.3.1f1/Editor/Data/UnityReferenceAssemblies/unity-4.8-api/Facades/System.Security.Cryptography.X509Certificates.dll"
-r:"C:/Program Files/Unity/Hub/Editor/2021.3.1f1/Editor/Data/UnityReferenceAssemblies/unity-4.8-api/Facades/System.Security.Principal.dll"
-r:"C:/Program Files/Unity/Hub/Editor/2021.3.1f1/Editor/Data/UnityReferenceAssemblies/unity-4.8-api/Facades/System.Security.SecureString.dll"
-r:"C:/Program Files/Unity/Hub/Editor/2021.3.1f1/Editor/Data/UnityReferenceAssemblies/unity-4.8-api/Facades/System.ServiceModel.Duplex.dll"
-r:"C:/Program Files/Unity/Hub/Editor/2021.3.1f1/Editor/Data/UnityReferenceAssemblies/unity-4.8-api/Facades/System.ServiceModel.Http.dll"
-r:"C:/Program Files/Unity/Hub/Editor/2021.3.1f1/Editor/Data/UnityReferenceAssemblies/unity-4.8-api/Facades/System.ServiceModel.NetTcp.dll"
-r:"C:/Program Files/Unity/Hub/Editor/2021.3.1f1/Editor/Data/UnityReferenceAssemblies/unity-4.8-api/Facades/System.ServiceModel.Primitives.dll"
-r:"C:/Program Files/Unity/Hub/Editor/2021.3.1f1/Editor/Data/UnityReferenceAssemblies/unity-4.8-api/Facades/System.ServiceModel.Security.dll"
-r:"C:/Program Files/Unity/Hub/Editor/2021.3.1f1/Editor/Data/UnityReferenceAssemblies/unity-4.8-api/Facades/System.Text.Encoding.dll"
-r:"C:/Program Files/Unity/Hub/Editor/2021.3.1f1/Editor/Data/UnityReferenceAssemblies/unity-4.8-api/Facades/System.Text.Encoding.Extensions.dll"
-r:"C:/Program Files/Unity/Hub/Editor/2021.3.1f1/Editor/Data/UnityReferenceAssemblies/unity-4.8-api/Facades/System.Text.RegularExpressions.dll"
-r:"C:/Program Files/Unity/Hub/Editor/2021.3.1f1/Editor/Data/UnityReferenceAssemblies/unity-4.8-api/Facades/System.Threading.dll"
-r:"C:/Program Files/Unity/Hub/Editor/2021.3.1f1/Editor/Data/UnityReferenceAssemblies/unity-4.8-api/Facades/System.Threading.Overlapped.dll"
-r:"C:/Program Files/Unity/Hub/Editor/2021.3.1f1/Editor/Data/UnityReferenceAssemblies/unity-4.8-api/Facades/System.Threading.Tasks.dll"
-r:"C:/Program Files/Unity/Hub/Editor/2021.3.1f1/Editor/Data/UnityReferenceAssemblies/unity-4.8-api/Facades/System.Threading.Tasks.Extensions.dll"
-r:"C:/Program Files/Unity/Hub/Editor/2021.3.1f1/Editor/Data/UnityReferenceAssemblies/unity-4.8-api/Facades/System.Threading.Tasks.Parallel.dll"
-r:"C:/Program Files/Unity/Hub/Editor/2021.3.1f1/Editor/Data/UnityReferenceAssemblies/unity-4.8-api/Facades/System.Threading.Thread.dll"
-r:"C:/Program Files/Unity/Hub/Editor/2021.3.1f1/Editor/Data/UnityReferenceAssemblies/unity-4.8-api/Facades/System.Threading.ThreadPool.dll"
-r:"C:/Program Files/Unity/Hub/Editor/2021.3.1f1/Editor/Data/UnityReferenceAssemblies/unity-4.8-api/Facades/System.Threading.Timer.dll"
-r:"C:/Program Files/Unity/Hub/Editor/2021.3.1f1/Editor/Data/UnityReferenceAssemblies/unity-4.8-api/Facades/System.ValueTuple.dll"
-r:"C:/Program Files/Unity/Hub/Editor/2021.3.1f1/Editor/Data/UnityReferenceAssemblies/unity-4.8-api/Facades/System.Xml.ReaderWriter.dll"
-r:"C:/Program Files/Unity/Hub/Editor/2021.3.1f1/Editor/Data/UnityReferenceAssemblies/unity-4.8-api/Facades/System.Xml.XDocument.dll"
-r:"C:/Program Files/Unity/Hub/Editor/2021.3.1f1/Editor/Data/UnityReferenceAssemblies/unity-4.8-api/Facades/System.Xml.XmlDocument.dll"
-r:"C:/Program Files/Unity/Hub/Editor/2021.3.1f1/Editor/Data/UnityReferenceAssemblies/unity-4.8-api/Facades/System.Xml.XmlSerializer.dll"
-r:"C:/Program Files/Unity/Hub/Editor/2021.3.1f1/Editor/Data/UnityReferenceAssemblies/unity-4.8-api/Facades/System.Xml.XPath.dll"
-r:"C:/Program Files/Unity/Hub/Editor/2021.3.1f1/Editor/Data/UnityReferenceAssemblies/unity-4.8-api/Facades/System.Xml.XPath.XDocument.dll"
-r:"C:/Program Files/Unity/Hub/Editor/2021.3.1f1/Editor/Data/UnityReferenceAssemblies/unity-4.8-api/Microsoft.CSharp.dll"
-r:"C:/Program Files/Unity/Hub/Editor/2021.3.1f1/Editor/Data/UnityReferenceAssemblies/unity-4.8-api/mscorlib.dll"
-r:"C:/Program Files/Unity/Hub/Editor/2021.3.1f1/Editor/Data/UnityReferenceAssemblies/unity-4.8-api/System.ComponentModel.Composition.dll"
-r:"C:/Program Files/Unity/Hub/Editor/2021.3.1f1/Editor/Data/UnityReferenceAssemblies/unity-4.8-api/System.ComponentModel.DataAnnotations.dll"
-r:"C:/Program Files/Unity/Hub/Editor/2021.3.1f1/Editor/Data/UnityReferenceAssemblies/unity-4.8-api/System.Configuration.dll"
-r:"C:/Program Files/Unity/Hub/Editor/2021.3.1f1/Editor/Data/UnityReferenceAssemblies/unity-4.8-api/System.Configuration.Install.dll"
-r:"C:/Program Files/Unity/Hub/Editor/2021.3.1f1/Editor/Data/UnityReferenceAssemblies/unity-4.8-api/System.Core.dll"
-r:"C:/Program Files/Unity/Hub/Editor/2021.3.1f1/Editor/Data/UnityReferenceAssemblies/unity-4.8-api/System.Data.DataSetExtensions.dll"
-r:"C:/Program Files/Unity/Hub/Editor/2021.3.1f1/Editor/Data/UnityReferenceAssemblies/unity-4.8-api/System.Data.dll"
-r:"C:/Program Files/Unity/Hub/Editor/2021.3.1f1/Editor/Data/UnityReferenceAssemblies/unity-4.8-api/System.Data.Entity.dll"
-r:"C:/Program Files/Unity/Hub/Editor/2021.3.1f1/Editor/Data/UnityReferenceAssemblies/unity-4.8-api/System.Data.Linq.dll"
-r:"C:/Program Files/Unity/Hub/Editor/2021.3.1f1/Editor/Data/UnityReferenceAssemblies/unity-4.8-api/System.Data.OracleClient.dll"
-r:"C:/Program Files/Unity/Hub/Editor/2021.3.1f1/Editor/Data/UnityReferenceAssemblies/unity-4.8-api/System.Data.Services.Client.dll"
-r:"C:/Program Files/Unity/Hub/Editor/2021.3.1f1/Editor/Data/UnityReferenceAssemblies/unity-4.8-api/System.Data.Services.dll"
-r:"C:/Program Files/Unity/Hub/Editor/2021.3.1f1/Editor/Data/UnityReferenceAssemblies/unity-4.8-api/System.Deployment.dll"
-r:"C:/Program Files/Unity/Hub/Editor/2021.3.1f1/Editor/Data/UnityReferenceAssemblies/unity-4.8-api/System.Design.dll"
-r:"C:/Program Files/Unity/Hub/Editor/2021.3.1f1/Editor/Data/UnityReferenceAssemblies/unity-4.8-api/System.Diagnostics.Tracing.dll"
-r:"C:/Program Files/Unity/Hub/Editor/2021.3.1f1/Editor/Data/UnityReferenceAssemblies/unity-4.8-api/System.DirectoryServices.dll"
-r:"C:/Program Files/Unity/Hub/Editor/2021.3.1f1/Editor/Data/UnityReferenceAssemblies/unity-4.8-api/System.DirectoryServices.Protocols.dll"
-r:"C:/Program Files/Unity/Hub/Editor/2021.3.1f1/Editor/Data/UnityReferenceAssemblies/unity-4.8-api/System.dll"
-r:"C:/Program Files/Unity/Hub/Editor/2021.3.1f1/Editor/Data/UnityReferenceAssemblies/unity-4.8-api/System.Drawing.Design.dll"
-r:"C:/Program Files/Unity/Hub/Editor/2021.3.1f1/Editor/Data/UnityReferenceAssemblies/unity-4.8-api/System.Drawing.dll"
-r:"C:/Program Files/Unity/Hub/Editor/2021.3.1f1/Editor/Data/UnityReferenceAssemblies/unity-4.8-api/System.Dynamic.dll"
-r:"C:/Program Files/Unity/Hub/Editor/2021.3.1f1/Editor/Data/UnityReferenceAssemblies/unity-4.8-api/System.EnterpriseServices.dll"
-r:"C:/Program Files/Unity/Hub/Editor/2021.3.1f1/Editor/Data/UnityReferenceAssemblies/unity-4.8-api/System.IdentityModel.dll"
-r:"C:/Program Files/Unity/Hub/Editor/2021.3.1f1/Editor/Data/UnityReferenceAssemblies/unity-4.8-api/System.IdentityModel.Selectors.dll"
-r:"C:/Program Files/Unity/Hub/Editor/2021.3.1f1/Editor/Data/UnityReferenceAssemblies/unity-4.8-api/System.IO.Compression.dll"
-r:"C:/Program Files/Unity/Hub/Editor/2021.3.1f1/Editor/Data/UnityReferenceAssemblies/unity-4.8-api/System.IO.Compression.FileSystem.dll"
-r:"C:/Program Files/Unity/Hub/Editor/2021.3.1f1/Editor/Data/UnityReferenceAssemblies/unity-4.8-api/System.Json.dll"
-r:"C:/Program Files/Unity/Hub/Editor/2021.3.1f1/Editor/Data/UnityReferenceAssemblies/unity-4.8-api/System.Json.Microsoft.dll"
-r:"C:/Program Files/Unity/Hub/Editor/2021.3.1f1/Editor/Data/UnityReferenceAssemblies/unity-4.8-api/System.Management.dll"
-r:"C:/Program Files/Unity/Hub/Editor/2021.3.1f1/Editor/Data/UnityReferenceAssemblies/unity-4.8-api/System.Messaging.dll"
-r:"C:/Program Files/Unity/Hub/Editor/2021.3.1f1/Editor/Data/UnityReferenceAssemblies/unity-4.8-api/System.Net.dll"
-r:"C:/Program Files/Unity/Hub/Editor/2021.3.1f1/Editor/Data/UnityReferenceAssemblies/unity-4.8-api/System.Net.Http.dll"
-r:"C:/Program Files/Unity/Hub/Editor/2021.3.1f1/Editor/Data/UnityReferenceAssemblies/unity-4.8-api/System.Net.Http.Formatting.dll"
-r:"C:/Program Files/Unity/Hub/Editor/2021.3.1f1/Editor/Data/UnityReferenceAssemblies/unity-4.8-api/System.Net.Http.WebRequest.dll"
-r:"C:/Program Files/Unity/Hub/Editor/2021.3.1f1/Editor/Data/UnityReferenceAssemblies/unity-4.8-api/System.Numerics.dll"
-r:"C:/Program Files/Unity/Hub/Editor/2021.3.1f1/Editor/Data/UnityReferenceAssemblies/unity-4.8-api/System.Numerics.Vectors.dll"
-r:"C:/Program Files/Unity/Hub/Editor/2021.3.1f1/Editor/Data/UnityReferenceAssemblies/unity-4.8-api/System.Reactive.Core.dll"
-r:"C:/Program Files/Unity/Hub/Editor/2021.3.1f1/Editor/Data/UnityReferenceAssemblies/unity-4.8-api/System.Reactive.Debugger.dll"
-r:"C:/Program Files/Unity/Hub/Editor/2021.3.1f1/Editor/Data/UnityReferenceAssemblies/unity-4.8-api/System.Reactive.Experimental.dll"
-r:"C:/Program Files/Unity/Hub/Editor/2021.3.1f1/Editor/Data/UnityReferenceAssemblies/unity-4.8-api/System.Reactive.Interfaces.dll"
-r:"C:/Program Files/Unity/Hub/Editor/2021.3.1f1/Editor/Data/UnityReferenceAssemblies/unity-4.8-api/System.Reactive.Linq.dll"
-r:"C:/Program Files/Unity/Hub/Editor/2021.3.1f1/Editor/Data/UnityReferenceAssemblies/unity-4.8-api/System.Reactive.Observable.Aliases.dll"
-r:"C:/Program Files/Unity/Hub/Editor/2021.3.1f1/Editor/Data/UnityReferenceAssemblies/unity-4.8-api/System.Reactive.PlatformServices.dll"
-r:"C:/Program Files/Unity/Hub/Editor/2021.3.1f1/Editor/Data/UnityReferenceAssemblies/unity-4.8-api/System.Reactive.Providers.dll"
-r:"C:/Program Files/Unity/Hub/Editor/2021.3.1f1/Editor/Data/UnityReferenceAssemblies/unity-4.8-api/System.Reactive.Runtime.Remoting.dll"
-r:"C:/Program Files/Unity/Hub/Editor/2021.3.1f1/Editor/Data/UnityReferenceAssemblies/unity-4.8-api/System.Reactive.Windows.Forms.dll"
-r:"C:/Program Files/Unity/Hub/Editor/2021.3.1f1/Editor/Data/UnityReferenceAssemblies/unity-4.8-api/System.Reactive.Windows.Threading.dll"
-r:"C:/Program Files/Unity/Hub/Editor/2021.3.1f1/Editor/Data/UnityReferenceAssemblies/unity-4.8-api/System.Reflection.Context.dll"
-r:"C:/Program Files/Unity/Hub/Editor/2021.3.1f1/Editor/Data/UnityReferenceAssemblies/unity-4.8-api/System.Runtime.Caching.dll"
-r:"C:/Program Files/Unity/Hub/Editor/2021.3.1f1/Editor/Data/UnityReferenceAssemblies/unity-4.8-api/System.Runtime.DurableInstancing.dll"
-r:"C:/Program Files/Unity/Hub/Editor/2021.3.1f1/Editor/Data/UnityReferenceAssemblies/unity-4.8-api/System.Runtime.Remoting.dll"
-r:"C:/Program Files/Unity/Hub/Editor/2021.3.1f1/Editor/Data/UnityReferenceAssemblies/unity-4.8-api/System.Runtime.Serialization.dll"
-r:"C:/Program Files/Unity/Hub/Editor/2021.3.1f1/Editor/Data/UnityReferenceAssemblies/unity-4.8-api/System.Runtime.Serialization.Formatters.Soap.dll"
-r:"C:/Program Files/Unity/Hub/Editor/2021.3.1f1/Editor/Data/UnityReferenceAssemblies/unity-4.8-api/System.Security.dll"
-r:"C:/Program Files/Unity/Hub/Editor/2021.3.1f1/Editor/Data/UnityReferenceAssemblies/unity-4.8-api/System.ServiceModel.Activation.dll"
-r:"C:/Program Files/Unity/Hub/Editor/2021.3.1f1/Editor/Data/UnityReferenceAssemblies/unity-4.8-api/System.ServiceModel.Discovery.dll"
-r:"C:/Program Files/Unity/Hub/Editor/2021.3.1f1/Editor/Data/UnityReferenceAssemblies/unity-4.8-api/System.ServiceModel.dll"
-r:"C:/Program Files/Unity/Hub/Editor/2021.3.1f1/Editor/Data/UnityReferenceAssemblies/unity-4.8-api/System.ServiceModel.Routing.dll"
-r:"C:/Program Files/Unity/Hub/Editor/2021.3.1f1/Editor/Data/UnityReferenceAssemblies/unity-4.8-api/System.ServiceModel.Web.dll"
-r:"C:/Program Files/Unity/Hub/Editor/2021.3.1f1/Editor/Data/UnityReferenceAssemblies/unity-4.8-api/System.ServiceProcess.dll"
-r:"C:/Program Files/Unity/Hub/Editor/2021.3.1f1/Editor/Data/UnityReferenceAssemblies/unity-4.8-api/System.Threading.Tasks.Dataflow.dll"
-r:"C:/Program Files/Unity/Hub/Editor/2021.3.1f1/Editor/Data/UnityReferenceAssemblies/unity-4.8-api/System.Transactions.dll"
-r:"C:/Program Files/Unity/Hub/Editor/2021.3.1f1/Editor/Data/UnityReferenceAssemblies/unity-4.8-api/System.Web.Abstractions.dll"
-r:"C:/Program Files/Unity/Hub/Editor/2021.3.1f1/Editor/Data/UnityReferenceAssemblies/unity-4.8-api/System.Web.ApplicationServices.dll"
-r:"C:/Program Files/Unity/Hub/Editor/2021.3.1f1/Editor/Data/UnityReferenceAssemblies/unity-4.8-api/System.Web.dll"
-r:"C:/Program Files/Unity/Hub/Editor/2021.3.1f1/Editor/Data/UnityReferenceAssemblies/unity-4.8-api/System.Web.DynamicData.dll"
-r:"C:/Program Files/Unity/Hub/Editor/2021.3.1f1/Editor/Data/UnityReferenceAssemblies/unity-4.8-api/System.Web.Extensions.Design.dll"
-r:"C:/Program Files/Unity/Hub/Editor/2021.3.1f1/Editor/Data/UnityReferenceAssemblies/unity-4.8-api/System.Web.Extensions.dll"
-r:"C:/Program Files/Unity/Hub/Editor/2021.3.1f1/Editor/Data/UnityReferenceAssemblies/unity-4.8-api/System.Web.Http.dll"
-r:"C:/Program Files/Unity/Hub/Editor/2021.3.1f1/Editor/Data/UnityReferenceAssemblies/unity-4.8-api/System.Web.Http.SelfHost.dll"
-r:"C:/Program Files/Unity/Hub/Editor/2021.3.1f1/Editor/Data/UnityReferenceAssemblies/unity-4.8-api/System.Web.Http.WebHost.dll"
-r:"C:/Program Files/Unity/Hub/Editor/2021.3.1f1/Editor/Data/UnityReferenceAssemblies/unity-4.8-api/System.Web.Mobile.dll"
-r:"C:/Program Files/Unity/Hub/Editor/2021.3.1f1/Editor/Data/UnityReferenceAssemblies/unity-4.8-api/System.Web.Mvc.dll"
-r:"C:/Program Files/Unity/Hub/Editor/2021.3.1f1/Editor/Data/UnityReferenceAssemblies/unity-4.8-api/System.Web.Razor.dll"
-r:"C:/Program Files/Unity/Hub/Editor/2021.3.1f1/Editor/Data/UnityReferenceAssemblies/unity-4.8-api/System.Web.RegularExpressions.dll"
-r:"C:/Program Files/Unity/Hub/Editor/2021.3.1f1/Editor/Data/UnityReferenceAssemblies/unity-4.8-api/System.Web.Routing.dll"
-r:"C:/Program Files/Unity/Hub/Editor/2021.3.1f1/Editor/Data/UnityReferenceAssemblies/unity-4.8-api/System.Web.Services.dll"
-r:"C:/Program Files/Unity/Hub/Editor/2021.3.1f1/Editor/Data/UnityReferenceAssemblies/unity-4.8-api/System.Web.WebPages.Deployment.dll"
-r:"C:/Program Files/Unity/Hub/Editor/2021.3.1f1/Editor/Data/UnityReferenceAssemblies/unity-4.8-api/System.Web.WebPages.dll"
-r:"C:/Program Files/Unity/Hub/Editor/2021.3.1f1/Editor/Data/UnityReferenceAssemblies/unity-4.8-api/System.Web.WebPages.Razor.dll"
-r:"C:/Program Files/Unity/Hub/Editor/2021.3.1f1/Editor/Data/UnityReferenceAssemblies/unity-4.8-api/System.Windows.dll"
-r:"C:/Program Files/Unity/Hub/Editor/2021.3.1f1/Editor/Data/UnityReferenceAssemblies/unity-4.8-api/System.Windows.Forms.DataVisualization.dll"
-r:"C:/Program Files/Unity/Hub/Editor/2021.3.1f1/Editor/Data/UnityReferenceAssemblies/unity-4.8-api/System.Windows.Forms.dll"
-r:"C:/Program Files/Unity/Hub/Editor/2021.3.1f1/Editor/Data/UnityReferenceAssemblies/unity-4.8-api/System.Workflow.Activities.dll"
-r:"C:/Program Files/Unity/Hub/Editor/2021.3.1f1/Editor/Data/UnityReferenceAssemblies/unity-4.8-api/System.Workflow.ComponentModel.dll"
-r:"C:/Program Files/Unity/Hub/Editor/2021.3.1f1/Editor/Data/UnityReferenceAssemblies/unity-4.8-api/System.Workflow.Runtime.dll"
-r:"C:/Program Files/Unity/Hub/Editor/2021.3.1f1/Editor/Data/UnityReferenceAssemblies/unity-4.8-api/System.Xaml.dll"
-r:"C:/Program Files/Unity/Hub/Editor/2021.3.1f1/Editor/Data/UnityReferenceAssemblies/unity-4.8-api/System.Xml.dll"
-r:"C:/Program Files/Unity/Hub/Editor/2021.3.1f1/Editor/Data/UnityReferenceAssemblies/unity-4.8-api/System.Xml.Linq.dll"
-r:"C:/Program Files/Unity/Hub/Editor/2021.3.1f1/Editor/Data/UnityReferenceAssemblies/unity-4.8-api/System.Xml.Serialization.dll"
-r:"D:/Programs/SHAG/Unity/Program/BioMassa/BioMassa 3D Mobile Source/Library/PackageCache/com.unity.burst@1.6.5/Unity.Burst.CodeGen/Unity.Burst.Cecil.dll"
-r:"D:/Programs/SHAG/Unity/Program/BioMassa/BioMassa 3D Mobile Source/Library/PackageCache/com.unity.burst@1.6.5/Unity.Burst.CodeGen/Unity.Burst.Cecil.Mdb.dll"
-r:"D:/Programs/SHAG/Unity/Program/BioMassa/BioMassa 3D Mobile Source/Library/PackageCache/com.unity.burst@1.6.5/Unity.Burst.CodeGen/Unity.Burst.Cecil.Pdb.dll"
-r:"D:/Programs/SHAG/Unity/Program/BioMassa/BioMassa 3D Mobile Source/Library/PackageCache/com.unity.burst@1.6.5/Unity.Burst.CodeGen/Unity.Burst.Cecil.Rocks.dll"
-r:"D:/Programs/SHAG/Unity/Program/BioMassa/BioMassa 3D Mobile Source/Library/PackageCache/com.unity.burst@1.6.5/Unity.Burst.Unsafe.dll"
-r:"D:/Programs/SHAG/Unity/Program/BioMassa/BioMassa 3D Mobile Source/Library/PackageCache/com.unity.collab-proxy@1.15.15/Lib/Editor/PlasticSCM/log4netPlastic.dll"
-r:"D:/Programs/SHAG/Unity/Program/BioMassa/BioMassa 3D Mobile Source/Library/PackageCache/com.unity.collab-proxy@1.15.15/Lib/Editor/PlasticSCM/Unity.Plastic.Antlr3.Runtime.dll"
-r:"D:/Programs/SHAG/Unity/Program/BioMassa/BioMassa 3D Mobile Source/Library/PackageCache/com.unity.collab-proxy@1.15.15/Lib/Editor/PlasticSCM/Unity.Plastic.Newtonsoft.Json.dll"
-r:"D:/Programs/SHAG/Unity/Program/BioMassa/BioMassa 3D Mobile Source/Library/PackageCache/com.unity.collab-proxy@1.15.15/Lib/Editor/PlasticSCM/unityplastic.dll"
-r:"D:/Programs/SHAG/Unity/Program/BioMassa/BioMassa 3D Mobile Source/Library/PackageCache/com.unity.visualscripting@1.7.6/Editor/VisualScripting.Core/Dependencies/DotNetZip/Unity.VisualScripting.IonicZip.dll"
-r:"D:/Programs/SHAG/Unity/Program/BioMassa/BioMassa 3D Mobile Source/Library/PackageCache/com.unity.visualscripting@1.7.6/Editor/VisualScripting.Core/Dependencies/YamlDotNet/Unity.VisualScripting.YamlDotNet.dll"
-r:"D:/Programs/SHAG/Unity/Program/BioMassa/BioMassa 3D Mobile Source/Library/PackageCache/com.unity.visualscripting@1.7.6/Runtime/VisualScripting.Flow/Dependencies/NCalc/Unity.VisualScripting.Antlr3.Runtime.dll"
-r:"Library/Bee/artifacts/1900b0aE.dag/Unity.Burst.ref.dll"
-r:"Library/Bee/artifacts/1900b0aE.dag/Unity.Mathematics.ref.dll"
-r:"Library/Bee/artifacts/1900b0aE.dag/Unity.RenderPipeline.Universal.ShaderLibrary.ref.dll"
-r:"Library/Bee/artifacts/1900b0aE.dag/Unity.RenderPipelines.Core.Runtime.ref.dll"
-r:"Library/Bee/artifacts/1900b0aE.dag/UnityEditor.UI.ref.dll"
-r:"Library/Bee/artifacts/1900b0aE.dag/UnityEngine.UI.ref.dll"
"Library/PackageCache/com.unity.render-pipelines.universal@12.1.6/Runtime/2D/CinemachineUniversalPixelPerfect.cs"
"Library/PackageCache/com.unity.render-pipelines.universal@12.1.6/Runtime/2D/Clipper.cs"
"Library/PackageCache/com.unity.render-pipelines.universal@12.1.6/Runtime/2D/Light2D.cs"
"Library/PackageCache/com.unity.render-pipelines.universal@12.1.6/Runtime/2D/Light2DAuthoring.cs"
"Library/PackageCache/com.unity.render-pipelines.universal@12.1.6/Runtime/2D/Light2DBlendStyle.cs"
"Library/PackageCache/com.unity.render-pipelines.universal@12.1.6/Runtime/2D/Light2DCullResult.cs"
"Library/PackageCache/com.unity.render-pipelines.universal@12.1.6/Runtime/2D/Light2DManager.cs"
"Library/PackageCache/com.unity.render-pipelines.universal@12.1.6/Runtime/2D/Light2DPoint.cs"
"Library/PackageCache/com.unity.render-pipelines.universal@12.1.6/Runtime/2D/Light2DShape.cs"
"Library/PackageCache/com.unity.render-pipelines.universal@12.1.6/Runtime/2D/LightUtility.cs"
"Library/PackageCache/com.unity.render-pipelines.universal@12.1.6/Runtime/2D/Passes/IRenderPass2D.cs"
"Library/PackageCache/com.unity.render-pipelines.universal@12.1.6/Runtime/2D/Passes/PixelPerfectBackgroundPass.cs"
"Library/PackageCache/com.unity.render-pipelines.universal@12.1.6/Runtime/2D/Passes/Render2DLightingPass.cs"
"Library/PackageCache/com.unity.render-pipelines.universal@12.1.6/Runtime/2D/Passes/Utility/LayerUtility.cs"
"Library/PackageCache/com.unity.render-pipelines.universal@12.1.6/Runtime/2D/Passes/Utility/Light2DLookupTexture.cs"
"Library/PackageCache/com.unity.render-pipelines.universal@12.1.6/Runtime/2D/Passes/Utility/RendererLighting.cs"
"Library/PackageCache/com.unity.render-pipelines.universal@12.1.6/Runtime/2D/PixelPerfectCamera.cs"
"Library/PackageCache/com.unity.render-pipelines.universal@12.1.6/Runtime/2D/PixelPerfectCameraInternal.cs"
"Library/PackageCache/com.unity.render-pipelines.universal@12.1.6/Runtime/2D/Renderer2D.cs"
"Library/PackageCache/com.unity.render-pipelines.universal@12.1.6/Runtime/2D/Renderer2DData.cs"
"Library/PackageCache/com.unity.render-pipelines.universal@12.1.6/Runtime/2D/Renderer2DDataAuthoring.cs"
"Library/PackageCache/com.unity.render-pipelines.universal@12.1.6/Runtime/2D/Shadows/CompositeShadowCaster2D.cs"
"Library/PackageCache/com.unity.render-pipelines.universal@12.1.6/Runtime/2D/Shadows/ShadowCaster2D.cs"
"Library/PackageCache/com.unity.render-pipelines.universal@12.1.6/Runtime/2D/Shadows/ShadowCasterGroup2D.cs"
"Library/PackageCache/com.unity.render-pipelines.universal@12.1.6/Runtime/2D/Shadows/ShadowCasterGroup2DManager.cs"
"Library/PackageCache/com.unity.render-pipelines.universal@12.1.6/Runtime/2D/Shadows/ShadowRendering.cs"
"Library/PackageCache/com.unity.render-pipelines.universal@12.1.6/Runtime/2D/Shadows/ShadowUtility.cs"
"Library/PackageCache/com.unity.render-pipelines.universal@12.1.6/Runtime/AssemblyInfo.cs"
"Library/PackageCache/com.unity.render-pipelines.universal@12.1.6/Runtime/ComponentUtility.cs"
"Library/PackageCache/com.unity.render-pipelines.universal@12.1.6/Runtime/Data/PostProcessData.cs"
"Library/PackageCache/com.unity.render-pipelines.universal@12.1.6/Runtime/Data/RenderStateData.cs"
"Library/PackageCache/com.unity.render-pipelines.universal@12.1.6/Runtime/Data/UniversalRenderPipelineAsset.cs"
"Library/PackageCache/com.unity.render-pipelines.universal@12.1.6/Runtime/Data/UniversalRenderPipelineEditorResources.cs"
"Library/PackageCache/com.unity.render-pipelines.universal@12.1.6/Runtime/Data/XRSystemData.cs"
"Library/PackageCache/com.unity.render-pipelines.universal@12.1.6/Runtime/Debug/DebugDisplaySettings.cs"
"Library/PackageCache/com.unity.render-pipelines.universal@12.1.6/Runtime/Debug/DebugDisplaySettingsCommon.cs"
"Library/PackageCache/com.unity.render-pipelines.universal@12.1.6/Runtime/Debug/DebugDisplaySettingsLighting.cs"
"Library/PackageCache/com.unity.render-pipelines.universal@12.1.6/Runtime/Debug/DebugDisplaySettingsMaterial.cs"
"Library/PackageCache/com.unity.render-pipelines.universal@12.1.6/Runtime/Debug/DebugDisplaySettingsPanel.cs"
"Library/PackageCache/com.unity.render-pipelines.universal@12.1.6/Runtime/Debug/DebugDisplaySettingsRendering.cs"
"Library/PackageCache/com.unity.render-pipelines.universal@12.1.6/Runtime/Debug/DebugDisplaySettingsUI.cs"
"Library/PackageCache/com.unity.render-pipelines.universal@12.1.6/Runtime/Debug/DebugHandler.cs"
"Library/PackageCache/com.unity.render-pipelines.universal@12.1.6/Runtime/Debug/DebugRenderSetup.cs"
"Library/PackageCache/com.unity.render-pipelines.universal@12.1.6/Runtime/Debug/IDebugDisplaySettingsData.cs"
"Library/PackageCache/com.unity.render-pipelines.universal@12.1.6/Runtime/Debug/IDebugDisplaySettingsPanel.cs"
"Library/PackageCache/com.unity.render-pipelines.universal@12.1.6/Runtime/Debug/IDebugDisplaySettingsQuery.cs"
"Library/PackageCache/com.unity.render-pipelines.universal@12.1.6/Runtime/Decal/DBuffer/DBufferRenderPass.cs"
"Library/PackageCache/com.unity.render-pipelines.universal@12.1.6/Runtime/Decal/DBuffer/DecalForwardEmissivePass.cs"
"Library/PackageCache/com.unity.render-pipelines.universal@12.1.6/Runtime/Decal/DecalDrawErrorRenderPass.cs"
"Library/PackageCache/com.unity.render-pipelines.universal@12.1.6/Runtime/Decal/DecalPreviewPass.cs"
"Library/PackageCache/com.unity.render-pipelines.universal@12.1.6/Runtime/Decal/DecalProjector.cs"
"Library/PackageCache/com.unity.render-pipelines.universal@12.1.6/Runtime/Decal/DecalShaderPassNames.cs"
"Library/PackageCache/com.unity.render-pipelines.universal@12.1.6/Runtime/Decal/Entities/DecalChunk.cs"
"Library/PackageCache/com.unity.render-pipelines.universal@12.1.6/Runtime/Decal/Entities/DecalCreateDrawCallSystem.cs"
"Library/PackageCache/com.unity.render-pipelines.universal@12.1.6/Runtime/Decal/Entities/DecalDrawSystem.cs"
"Library/PackageCache/com.unity.render-pipelines.universal@12.1.6/Runtime/Decal/Entities/DecalEntityManager.cs"
"Library/PackageCache/com.unity.render-pipelines.universal@12.1.6/Runtime/Decal/Entities/DecalSkipCulledSystem.cs"
"Library/PackageCache/com.unity.render-pipelines.universal@12.1.6/Runtime/Decal/Entities/DecalUpdateCachedSystem.cs"
"Library/PackageCache/com.unity.render-pipelines.universal@12.1.6/Runtime/Decal/Entities/DecalUpdateCulledSystem.cs"
"Library/PackageCache/com.unity.render-pipelines.universal@12.1.6/Runtime/Decal/Entities/DecalUpdateCullingGroupSystem.cs"
"Library/PackageCache/com.unity.render-pipelines.universal@12.1.6/Runtime/Decal/ScreenSpace/DecalGBufferRenderPass.cs"
"Library/PackageCache/com.unity.render-pipelines.universal@12.1.6/Runtime/Decal/ScreenSpace/DecalScreenSpaceRenderPass.cs"
"Library/PackageCache/com.unity.render-pipelines.universal@12.1.6/Runtime/DeferredLights.cs"
"Library/PackageCache/com.unity.render-pipelines.universal@12.1.6/Runtime/DeferredShaderData.cs"
"Library/PackageCache/com.unity.render-pipelines.universal@12.1.6/Runtime/DeferredTiler.cs"
"Library/PackageCache/com.unity.render-pipelines.universal@12.1.6/Runtime/Deprecated.cs"
"Library/PackageCache/com.unity.render-pipelines.universal@12.1.6/Runtime/Documentation.cs"
"Library/PackageCache/com.unity.render-pipelines.universal@12.1.6/Runtime/External/LibTessDotNet/Dict.cs"
"Library/PackageCache/com.unity.render-pipelines.universal@12.1.6/Runtime/External/LibTessDotNet/Geom.cs"
"Library/PackageCache/com.unity.render-pipelines.universal@12.1.6/Runtime/External/LibTessDotNet/Mesh.cs"
"Library/PackageCache/com.unity.render-pipelines.universal@12.1.6/Runtime/External/LibTessDotNet/MeshUtils.cs"
"Library/PackageCache/com.unity.render-pipelines.universal@12.1.6/Runtime/External/LibTessDotNet/PriorityHeap.cs"
"Library/PackageCache/com.unity.render-pipelines.universal@12.1.6/Runtime/External/LibTessDotNet/PriorityQueue.cs"
"Library/PackageCache/com.unity.render-pipelines.universal@12.1.6/Runtime/External/LibTessDotNet/Sweep.cs"
"Library/PackageCache/com.unity.render-pipelines.universal@12.1.6/Runtime/External/LibTessDotNet/Tess.cs"
"Library/PackageCache/com.unity.render-pipelines.universal@12.1.6/Runtime/ForwardLights.cs"
"Library/PackageCache/com.unity.render-pipelines.universal@12.1.6/Runtime/ForwardRendererData.cs"
"Library/PackageCache/com.unity.render-pipelines.universal@12.1.6/Runtime/IntermediateTextureMode.cs"
"Library/PackageCache/com.unity.render-pipelines.universal@12.1.6/Runtime/LightCookieManager.cs"
"Library/PackageCache/com.unity.render-pipelines.universal@12.1.6/Runtime/MotionVectorRendering.cs"
"Library/PackageCache/com.unity.render-pipelines.universal@12.1.6/Runtime/NativeRenderPass.cs"
"Library/PackageCache/com.unity.render-pipelines.universal@12.1.6/Runtime/NormalReconstruction.cs"
"Library/PackageCache/com.unity.render-pipelines.universal@12.1.6/Runtime/Overrides/Bloom.cs"
"Library/PackageCache/com.unity.render-pipelines.universal@12.1.6/Runtime/Overrides/ChannelMixer.cs"
"Library/PackageCache/com.unity.render-pipelines.universal@12.1.6/Runtime/Overrides/ChromaticAberration.cs"
"Library/PackageCache/com.unity.render-pipelines.universal@12.1.6/Runtime/Overrides/ColorAdjustments.cs"
"Library/PackageCache/com.unity.render-pipelines.universal@12.1.6/Runtime/Overrides/ColorCurves.cs"
"Library/PackageCache/com.unity.render-pipelines.universal@12.1.6/Runtime/Overrides/ColorLookup.cs"
"Library/PackageCache/com.unity.render-pipelines.universal@12.1.6/Runtime/Overrides/DepthOfField.cs"
"Library/PackageCache/com.unity.render-pipelines.universal@12.1.6/Runtime/Overrides/FilmGrain.cs"
"Library/PackageCache/com.unity.render-pipelines.universal@12.1.6/Runtime/Overrides/LensDistortion.cs"
"Library/PackageCache/com.unity.render-pipelines.universal@12.1.6/Runtime/Overrides/LiftGammaGain.cs"
"Library/PackageCache/com.unity.render-pipelines.universal@12.1.6/Runtime/Overrides/MotionBlur.cs"
"Library/PackageCache/com.unity.render-pipelines.universal@12.1.6/Runtime/Overrides/PaniniProjection.cs"
"Library/PackageCache/com.unity.render-pipelines.universal@12.1.6/Runtime/Overrides/ShadowsMidtonesHighlights.cs"
"Library/PackageCache/com.unity.render-pipelines.universal@12.1.6/Runtime/Overrides/SplitToning.cs"
"Library/PackageCache/com.unity.render-pipelines.universal@12.1.6/Runtime/Overrides/Tonemapping.cs"
"Library/PackageCache/com.unity.render-pipelines.universal@12.1.6/Runtime/Overrides/Vignette.cs"
"Library/PackageCache/com.unity.render-pipelines.universal@12.1.6/Runtime/Overrides/WhiteBalance.cs"
"Library/PackageCache/com.unity.render-pipelines.universal@12.1.6/Runtime/Passes/AdditionalLightsShadowCasterPass.cs"
"Library/PackageCache/com.unity.render-pipelines.universal@12.1.6/Runtime/Passes/CapturePass.cs"
"Library/PackageCache/com.unity.render-pipelines.universal@12.1.6/Runtime/Passes/ColorGradingLutPass.cs"
"Library/PackageCache/com.unity.render-pipelines.universal@12.1.6/Runtime/Passes/CopyColorPass.cs"
"Library/PackageCache/com.unity.render-pipelines.universal@12.1.6/Runtime/Passes/CopyDepthPass.cs"
"Library/PackageCache/com.unity.render-pipelines.universal@12.1.6/Runtime/Passes/DeferredPass.cs"
"Library/PackageCache/com.unity.render-pipelines.universal@12.1.6/Runtime/Passes/DepthNormalOnlyPass.cs"
"Library/PackageCache/com.unity.render-pipelines.universal@12.1.6/Runtime/Passes/DepthOnlyPass.cs"
"Library/PackageCache/com.unity.render-pipelines.universal@12.1.6/Runtime/Passes/DrawObjectsPass.cs"
"Library/PackageCache/com.unity.render-pipelines.universal@12.1.6/Runtime/Passes/DrawSkyboxPass.cs"
"Library/PackageCache/com.unity.render-pipelines.universal@12.1.6/Runtime/Passes/FinalBlitPass.cs"
"Library/PackageCache/com.unity.render-pipelines.universal@12.1.6/Runtime/Passes/GBufferPass.cs"
"Library/PackageCache/com.unity.render-pipelines.universal@12.1.6/Runtime/Passes/InvokeOnRenderObjectCallbackPass.cs"
"Library/PackageCache/com.unity.render-pipelines.universal@12.1.6/Runtime/Passes/MainLightShadowCasterPass.cs"
"Library/PackageCache/com.unity.render-pipelines.universal@12.1.6/Runtime/Passes/MotionVectorRenderPass.cs"
"Library/PackageCache/com.unity.render-pipelines.universal@12.1.6/Runtime/Passes/PostProcessPass.cs"
"Library/PackageCache/com.unity.render-pipelines.universal@12.1.6/Runtime/Passes/RenderObjectsPass.cs"
"Library/PackageCache/com.unity.render-pipelines.universal@12.1.6/Runtime/Passes/ScreenSpaceShadowResolvePass.cs"
"Library/PackageCache/com.unity.render-pipelines.universal@12.1.6/Runtime/Passes/ScriptableRenderPass.cs"
"Library/PackageCache/com.unity.render-pipelines.universal@12.1.6/Runtime/Passes/TileDepthRangePass.cs"
"Library/PackageCache/com.unity.render-pipelines.universal@12.1.6/Runtime/Passes/TransparentSettingsPass.cs"
"Library/PackageCache/com.unity.render-pipelines.universal@12.1.6/Runtime/Passes/XROcclusionMeshPass.cs"
"Library/PackageCache/com.unity.render-pipelines.universal@12.1.6/Runtime/PostProcessPasses.cs"
"Library/PackageCache/com.unity.render-pipelines.universal@12.1.6/Runtime/PostProcessUtils.cs"
"Library/PackageCache/com.unity.render-pipelines.universal@12.1.6/Runtime/PreviousFrameData.cs"
"Library/PackageCache/com.unity.render-pipelines.universal@12.1.6/Runtime/RendererFeatures/DecalRendererFeature.cs"
"Library/PackageCache/com.unity.render-pipelines.universal@12.1.6/Runtime/RendererFeatures/DisallowMultipleRendererFeature.cs"
"Library/PackageCache/com.unity.render-pipelines.universal@12.1.6/Runtime/RendererFeatures/RenderObjects.cs"
"Library/PackageCache/com.unity.render-pipelines.universal@12.1.6/Runtime/RendererFeatures/ScreenSpaceAmbientOcclusion.cs"
"Library/PackageCache/com.unity.render-pipelines.universal@12.1.6/Runtime/RendererFeatures/ScreenSpaceShadows.cs"
"Library/PackageCache/com.unity.render-pipelines.universal@12.1.6/Runtime/RenderingUtils.cs"
"Library/PackageCache/com.unity.render-pipelines.universal@12.1.6/Runtime/RenderTargetBufferSystem.cs"
"Library/PackageCache/com.unity.render-pipelines.universal@12.1.6/Runtime/RenderTargetHandle.cs"
"Library/PackageCache/com.unity.render-pipelines.universal@12.1.6/Runtime/SampleCount.cs"
"Library/PackageCache/com.unity.render-pipelines.universal@12.1.6/Runtime/SceneViewDrawMode.cs"
"Library/PackageCache/com.unity.render-pipelines.universal@12.1.6/Runtime/ScriptableRenderer.cs"
"Library/PackageCache/com.unity.render-pipelines.universal@12.1.6/Runtime/ScriptableRendererData.cs"
"Library/PackageCache/com.unity.render-pipelines.universal@12.1.6/Runtime/ScriptableRendererFeature.cs"
"Library/PackageCache/com.unity.render-pipelines.universal@12.1.6/Runtime/ShaderData.cs"
"Library/PackageCache/com.unity.render-pipelines.universal@12.1.6/Runtime/ShaderUtils.cs"
"Library/PackageCache/com.unity.render-pipelines.universal@12.1.6/Runtime/ShadowUtils.cs"
"Library/PackageCache/com.unity.render-pipelines.universal@12.1.6/Runtime/StencilUsage.cs"
"Library/PackageCache/com.unity.render-pipelines.universal@12.1.6/Runtime/Tiling/LightExtractionJob.cs"
"Library/PackageCache/com.unity.render-pipelines.universal@12.1.6/Runtime/Tiling/MinMaxZJob.cs"
"Library/PackageCache/com.unity.render-pipelines.universal@12.1.6/Runtime/Tiling/RadixSortJob.cs"
"Library/PackageCache/com.unity.render-pipelines.universal@12.1.6/Runtime/Tiling/ReorderJob.cs"
"Library/PackageCache/com.unity.render-pipelines.universal@12.1.6/Runtime/Tiling/SliceCombineJob.cs"
"Library/PackageCache/com.unity.render-pipelines.universal@12.1.6/Runtime/Tiling/SliceCullingJob.cs"
"Library/PackageCache/com.unity.render-pipelines.universal@12.1.6/Runtime/Tiling/TileSize.cs"
"Library/PackageCache/com.unity.render-pipelines.universal@12.1.6/Runtime/Tiling/ZBinningJob.cs"
"Library/PackageCache/com.unity.render-pipelines.universal@12.1.6/Runtime/UniversalAdditionalCameraData.cs"
"Library/PackageCache/com.unity.render-pipelines.universal@12.1.6/Runtime/UniversalAdditionalLightData.cs"
"Library/PackageCache/com.unity.render-pipelines.universal@12.1.6/Runtime/UniversalRenderer.cs"
"Library/PackageCache/com.unity.render-pipelines.universal@12.1.6/Runtime/UniversalRendererData.cs"
"Library/PackageCache/com.unity.render-pipelines.universal@12.1.6/Runtime/UniversalRenderPipeline.cs"
"Library/PackageCache/com.unity.render-pipelines.universal@12.1.6/Runtime/UniversalRenderPipelineCore.cs"
"Library/PackageCache/com.unity.render-pipelines.universal@12.1.6/Runtime/UniversalRenderPipelineGlobalSettings.cs"
"Library/PackageCache/com.unity.render-pipelines.universal@12.1.6/Runtime/XR/XRLayout.cs"
"Library/PackageCache/com.unity.render-pipelines.universal@12.1.6/Runtime/XR/XRPass.cs"
"Library/PackageCache/com.unity.render-pipelines.universal@12.1.6/Runtime/XR/XRSystem.cs"
-langversion:9.0
/unsafe+
/deterministic
/optimize+
/debug:portable
/nologo
/RuntimeMetadataVersion:v4.0.30319

/nowarn:0169
/nowarn:0649
/nowarn:1701
/nowarn:1702
/utf8output
/preferreduilang:en-US
-warn:0